<?xml version="1.0" encoding="UTF-8" standalone="no"?>
<!-- Created with Inkscape (http://www.inkscape.org/) -->

<svg
   xmlns:dc="http://purl.org/dc/elements/1.1/"
   xmlns:cc="http://creativecommons.org/ns#"
   xmlns:rdf="http://www.w3.org/1999/02/22-rdf-syntax-ns#"
   xmlns:svg="http://www.w3.org/2000/svg"
   xmlns="http://www.w3.org/2000/svg"
   xmlns:sodipodi="http://sodipodi.sourceforge.net/DTD/sodipodi-0.dtd"
   xmlns:inkscape="http://www.inkscape.org/namespaces/inkscape"
   version="1.2"
   width="390.87799mm"
   height="299.15601mm"
   viewBox="0 0 1108 848"
   id="svg2"
   inkscape:version="0.48.3.1 r9886"
   sodipodi:docname="user_requested_job.svg">
  <sodipodi:namedview
     pagecolor="#ffffff"
     bordercolor="#666666"
     borderopacity="1"
     objecttolerance="10"
     gridtolerance="10"
     guidetolerance="10"
     inkscape:pageopacity="0"
     inkscape:pageshadow="2"
     inkscape:window-width="1920"
     inkscape:window-height="1031"
     id="namedview192"
     showgrid="false"
     inkscape:zoom="1.2594487"
     inkscape:cx="666.50913"
     inkscape:cy="940.72786"
     inkscape:window-x="0"
     inkscape:window-y="25"
     inkscape:window-maximized="1"
     inkscape:current-layer="svg2" />
  <title
     id="title4">Qt Svg Document</title>
  <desc
     id="desc6">Generated with Qt</desc>
  <metadata
     id="metadata402">
    <rdf:RDF>
      <cc:Work
         rdf:about="">
        <dc:format>image/svg+xml</dc:format>
        <dc:type
           rdf:resource="http://purl.org/dc/dcmitype/StillImage" />
        <dc:title>Qt Svg Document</dc:title>
      </cc:Work>
    </rdf:RDF>
  </metadata>
  <defs
     id="defs8" />
  <g
     transform="translate(-20,-48)"
     id="g12"
     style="font-size:12px;font-style:normal;font-weight:400;fill:#ffffff;fill-opacity:1;fill-rule:evenodd;stroke:#000000;stroke-width:1;stroke-linecap:square;stroke-linejoin:bevel;stroke-opacity:1;font-family:LMRoman10">
    <path
       d="m 687,48 67,0 0,33 -67,0 0,-33"
       id="path14"
       style="fill-rule:evenodd" />
    <text
       x="699"
       y="69"
       id="text16"
       xml:space="preserve"
       style="font-size:12px;font-style:normal;font-weight:400;fill:#000000;fill-opacity:1;stroke:none;font-family:LMRoman10"> : Cache</text>
  </g>
  <g
     transform="translate(-20,-48)"
     id="g18"
     style="font-size:12px;font-style:normal;font-weight:400;fill:none;stroke:#000000;stroke-width:1;stroke-linecap:butt;stroke-linejoin:bevel;stroke-opacity:1;font-family:LMRoman10">
    <polyline
       style="fill:none"
       id="polyline20"
       points="699,71 742,71 "
       vector-effect="none" />
  </g>
  <g
     transform="matrix(1,0,0,1.3829806,-20,-79.021428)"
     id="g22"
     style="font-size:11px;font-style:normal;font-weight:400;fill:none;stroke:#000000;stroke-width:0.8503387;stroke-linecap:square;stroke-linejoin:bevel;stroke-opacity:1;stroke-dasharray:3.40135489, 1.70067744;stroke-dashoffset:0;font-family:Droid Sans">
    <polyline
       style="fill:none;stroke-width:0.8503387"
       id="polyline24"
       points="720,81 720,240 "
       vector-effect="non-scaling-stroke" />
  </g>
  <g
     transform="translate(-20,-48)"
     id="g26"
     style="font-size:12px;font-style:normal;font-weight:400;fill:#ffffff;fill-opacity:1;fill-rule:evenodd;stroke:#000000;stroke-width:1;stroke-linecap:square;stroke-linejoin:bevel;stroke-opacity:1;font-family:LMRoman10">
    <path
       d="m 777,48 54,0 0,33 -54,0 0,-33"
       id="path28"
       style="fill-rule:evenodd" />
    <text
       x="788.5"
       y="69"
       id="text30"
       xml:space="preserve"
       style="font-size:12px;font-style:normal;font-weight:400;fill:#000000;fill-opacity:1;stroke:none;font-family:LMRoman10"> : Tile</text>
  </g>
  <g
     transform="translate(-20,-48)"
     id="g32"
     style="font-size:12px;font-style:normal;font-weight:400;fill:none;stroke:#000000;stroke-width:1;stroke-linecap:butt;stroke-linejoin:bevel;stroke-opacity:1;font-family:LMRoman10">
    <polyline
       style="fill:none"
       id="polyline34"
       points="788.5,71 819.5,71 "
       vector-effect="none" />
  </g>
  <polyline
     vector-effect="non-scaling-stroke"
     points="804,81 804,302 "
     id="polyline38"
     style="font-size:11px;font-style:normal;font-weight:400;fill:none;stroke:#000000;stroke-width:1;stroke-linecap:square;stroke-linejoin:bevel;stroke-opacity:1;stroke-dasharray:4, 2;stroke-dashoffset:0;font-family:Droid Sans"
     transform="translate(-20,-48)" />
  <polyline
     vector-effect="non-scaling-stroke"
     points="663,411 663,629 "
     id="polyline40"
     style="font-size:11px;font-style:normal;font-weight:400;fill:none;stroke:#000000;stroke-width:0.64523649;stroke-linecap:square;stroke-linejoin:bevel;stroke-opacity:1;stroke-dasharray:2.58094586, 1.29047293;stroke-dashoffset:0;font-family:Droid Sans"
     transform="matrix(1,0,0,2.4019402,-20,-624.19743)" />
  <polyline
     vector-effect="non-scaling-stroke"
     points="785,411 785,709 "
     id="polyline42"
     style="font-size:11px;font-style:normal;font-weight:400;fill:none;stroke:#000000;stroke-width:0.75674236;stroke-linecap:square;stroke-linejoin:bevel;stroke-opacity:1;stroke-dasharray:3.02696945, 1.51348473;stroke-dashoffset:0;font-family:Droid Sans"
     transform="matrix(1,0,0,1.7462399,-20,-354.70459)" />
  <g
     transform="translate(-20,-48)"
     id="g44"
     style="font-size:12px;font-style:normal;font-weight:400;fill:#ffffff;fill-opacity:1;fill-rule:evenodd;stroke:#000000;stroke-width:1;stroke-linecap:square;stroke-linejoin:bevel;stroke-opacity:1;font-family:LMRoman10">
    <path
       d="m 733,378 105,0 0,33 -105,0 0,-33"
       id="path46"
       style="fill-rule:evenodd" />
    <text
       x="753.5"
       y="399"
       id="text48"
       xml:space="preserve"
       style="font-size:12px;font-style:normal;font-weight:400;fill:#000000;fill-opacity:1;stroke:none;font-family:LMRoman10"> : Stylesheet</text>
  </g>
  <g
     transform="translate(-20,-48)"
     id="g50"
     style="font-size:12px;font-style:normal;font-weight:400;fill:none;stroke:#000000;stroke-width:1;stroke-linecap:butt;stroke-linejoin:bevel;stroke-opacity:1;font-family:LMRoman10">
    <polyline
       style="fill:none"
       id="polyline52"
       points="753.5,401 817.5,401 "
       vector-effect="none" />
  </g>
  <g
     transform="translate(-20,-48)"
     id="g54"
     style="font-size:12px;font-style:normal;font-weight:400;fill:#ffffff;fill-opacity:1;fill-rule:evenodd;stroke:#000000;stroke-width:1;stroke-linecap:square;stroke-linejoin:bevel;stroke-opacity:1;font-family:LMRoman10">
    <path
       d="m 131,48 150,0 0,33 -150,0 0,-33"
       id="path56"
       style="fill-rule:evenodd" />
    <text
       x="158"
       y="69"
       id="text58"
       xml:space="preserve"
       style="font-size:12px;font-style:normal;font-weight:400;fill:#000000;fill-opacity:1;stroke:none;font-family:LMRoman10"> : UserRequestJob</text>
  </g>
  <g
     transform="translate(-20,-48)"
     id="g60"
     style="font-size:12px;font-style:normal;font-weight:400;fill:none;stroke:#000000;stroke-width:1;stroke-linecap:butt;stroke-linejoin:bevel;stroke-opacity:1;font-family:LMRoman10">
    <polyline
       style="fill:none"
       id="polyline62"
       points="158,71 254,71 "
       vector-effect="none" />
  </g>
  <g
     transform="translate(-20,-48)"
     id="g64"
     style="font-size:11px;font-style:normal;font-weight:400;fill:none;stroke:#000000;stroke-width:1;stroke-linecap:square;stroke-linejoin:bevel;stroke-opacity:1;stroke-dasharray:4, 2;stroke-dashoffset:0;font-family:Droid Sans">
    <polyline
       style="fill:none"
       id="polyline66"
       points="206,81 206,896 "
       vector-effect="non-scaling-stroke" />
  </g>
  <path
     d="m 177.44934,47.07591 17,0 0,796.06855 -17,0 0,-796.06855"
     id="path74-0"
     style="font-size:11px;font-style:normal;font-weight:400;fill:#ffffff;stroke:#000000;stroke-width:1;stroke-linecap:square;stroke-linejoin:bevel;stroke-opacity:1;font-family:Droid Sans" />
  <g
     transform="translate(-20,-48)"
     id="g68"
     style="font-size:11px;font-style:normal;font-weight:400;fill:#ffffff;fill-opacity:1;fill-rule:evenodd;stroke:none;font-family:Droid Sans">
    <path
       d="m 1058,839 17,0 0,37 -17,0 0,-37"
       id="path70"
       style="fill-rule:evenodd" />
  </g>
  <polyline
     vector-effect="non-scaling-stroke"
     points="206,843 1058,843 "
     id="polyline76"
     style="font-size:11px;font-style:normal;font-weight:400;fill:none;stroke:#000000;stroke-width:1.00531065;stroke-linecap:square;stroke-linejoin:bevel;stroke-opacity:1;font-family:Droid Sans"
     transform="matrix(0.98946268,0,0,1,-8.8515187,-48)" />
  <path
     inkscape:connector-curvature="0"
     style="font-size:11px;font-style:normal;font-weight:400;fill:#000000;fill-opacity:1;fill-rule:evenodd;stroke:#000000;stroke-width:0.99999994;stroke-linecap:square;stroke-linejoin:bevel;stroke-opacity:1;font-family:Droid Sans"
     id="path80"
     d="m 1037.2246,795 -3.962,-3 0,6 3.962,-3" />
  <polyline
     vector-effect="non-scaling-stroke"
     points="206,873 210,870 "
     id="polyline82"
     style="font-size:11px;font-style:normal;font-weight:400;fill:none;stroke:#000000;stroke-width:1.00478423;stroke-linecap:square;stroke-linejoin:bevel;stroke-opacity:1;font-family:Droid Sans"
     transform="matrix(0.9904997,0,0,1,-9.0847874,-48)" />
  <polyline
     vector-effect="non-scaling-stroke"
     points="206,873 210,876 "
     id="polyline84"
     style="font-size:11px;font-style:normal;font-weight:400;fill:none;stroke:#000000;stroke-width:1.00478423;stroke-linecap:square;stroke-linejoin:bevel;stroke-opacity:1;font-family:Droid Sans"
     transform="matrix(0.9904997,0,0,1,-9.0847874,-48)" />
  <g
     transform="matrix(0.98735522,0,0,1,-6.6218225,-48)"
     id="g86"
     style="font-size:11px;font-style:normal;font-weight:400;fill:#000000;fill-opacity:1;fill-rule:evenodd;stroke:#000000;stroke-width:1.00638294;stroke-linecap:square;stroke-linejoin:bevel;stroke-opacity:1;stroke-dasharray:1.00638299, 2.01276598;stroke-dashoffset:0;font-family:Droid Sans">
    <polyline
       style="fill:none;stroke-width:1.00638294"
       id="polyline88"
       points="206,873 1058,873 "
       vector-effect="non-scaling-stroke" />
  </g>
  <polyline
     vector-effect="non-scaling-stroke"
     points="542,138 538,135 "
     id="polyline92"
     style="font-size:11px;font-style:normal;font-weight:400;fill:none;stroke:#000000;stroke-width:1.01508284;stroke-linecap:square;stroke-linejoin:bevel;stroke-opacity:1;font-family:Droid Sans"
     transform="matrix(0.97649811,0,0,1,-5.6619766,-48)" />
  <polyline
     vector-effect="non-scaling-stroke"
     points="542,138 538,141 "
     id="polyline94"
     style="font-size:11px;font-style:normal;font-weight:400;fill:none;stroke:#000000;stroke-width:1.01508284;stroke-linecap:square;stroke-linejoin:bevel;stroke-opacity:1;font-family:Droid Sans"
     transform="matrix(0.97649811,0,0,1,-5.6619766,-48)" />
  <polyline
     vector-effect="non-scaling-stroke"
     points="207,138 542,138 "
     id="polyline96"
     style="font-size:11px;font-style:normal;font-weight:400;fill:none;stroke:#000000;stroke-width:1.01508284;stroke-linecap:square;stroke-linejoin:bevel;stroke-opacity:1;font-family:Droid Sans"
     transform="matrix(0.9809945,0,0,1,-8.1927281,-48)" />
  <g
     transform="translate(-20,-48)"
     id="g98"
     style="font-size:12px;font-style:normal;font-weight:400;fill:#ffffff;fill-opacity:1;fill-rule:evenodd;stroke:#000000;stroke-width:1;stroke-linecap:square;stroke-linejoin:bevel;stroke-opacity:1;font-family:LMRoman10">
    <path
       d="m 544,118 119,0 0,33 -119,0 0,-33"
       id="path100"
       style="fill-rule:evenodd" />
    <text
       x="564"
       y="139"
       id="text102"
       xml:space="preserve"
       style="font-size:12px;font-style:normal;font-weight:400;fill:#000000;fill-opacity:1;stroke:none;font-family:LMRoman10"> : TileIdentifier</text>
  </g>
  <g
     transform="translate(-20,-48)"
     id="g104"
     style="font-size:12px;font-style:normal;font-weight:400;fill:none;stroke:#000000;stroke-width:1;stroke-linecap:butt;stroke-linejoin:bevel;stroke-opacity:1;font-family:LMRoman10">
    <polyline
       style="fill:none"
       id="polyline106"
       points="564,141 643,141 "
       vector-effect="none" />
  </g>
  <g
     transform="translate(-20,-48)"
     id="g108"
     style="font-size:11px;font-style:normal;font-weight:400;fill:none;stroke:#000000;stroke-width:1;stroke-linecap:square;stroke-linejoin:bevel;stroke-opacity:1;stroke-dasharray:4, 2;stroke-dashoffset:0;font-family:Droid Sans">
    <polyline
       style="fill:none"
       id="polyline110"
       points="603,151 603,162 "
       vector-effect="non-scaling-stroke" />
  </g>
  <g
     transform="translate(-20,-48)"
     id="g112"
     style="font-size:12px;font-style:normal;font-weight:400;fill:#ffffff;fill-opacity:1;fill-rule:evenodd;stroke:#000000;stroke-width:1;stroke-linecap:square;stroke-linejoin:bevel;stroke-opacity:1;font-family:LMRoman10">
    <path
       d="m 860,378 96,0 0,33 -96,0 0,-33"
       id="path114"
       style="fill-rule:evenodd" />
    <text
       x="878.5"
       y="399"
       id="text116"
       xml:space="preserve"
       style="font-size:12px;font-style:normal;font-weight:400;fill:#000000;fill-opacity:1;stroke:none;font-family:LMRoman10"> : Renderer</text>
  </g>
  <g
     transform="translate(-20,-48)"
     id="g118"
     style="font-size:12px;font-style:normal;font-weight:400;fill:none;stroke:#000000;stroke-width:1;stroke-linecap:butt;stroke-linejoin:bevel;stroke-opacity:1;font-family:LMRoman10">
    <polyline
       style="fill:none"
       id="polyline120"
       points="878.5,401 937.5,401 "
       vector-effect="none" />
  </g>
  <g
     transform="matrix(1,0,0,1.4109904,-20,-216.91704)"
     id="g122"
     style="font-size:11px;font-style:normal;font-weight:400;fill:none;stroke:#000000;stroke-width:0.8418563;stroke-linecap:square;stroke-linejoin:bevel;stroke-opacity:1;stroke-dasharray:3.36742529, 1.68371264;stroke-dashoffset:0;font-family:Droid Sans">
    <polyline
       style="fill:none;stroke-width:0.8418563"
       id="polyline124"
       points="908,411 908,793 "
       vector-effect="non-scaling-stroke" />
  </g>
  <g
     transform="translate(-20,-48)"
     id="g126"
     style="font-size:12px;font-style:normal;font-weight:400;fill:#ffffff;fill-opacity:1;fill-rule:evenodd;stroke:#000000;stroke-width:1;stroke-linecap:square;stroke-linejoin:bevel;stroke-opacity:1;font-family:LMRoman10">
    <path
       d="m 1006,48 122,0 0,33 -122,0 0,-33"
       id="path128"
       style="fill-rule:evenodd" />
    <text
       x="1027.5"
       y="69"
       id="text130"
       xml:space="preserve"
       style="font-size:12px;font-style:normal;font-weight:400;fill:#000000;fill-opacity:1;stroke:none;font-family:LMRoman10"> : HttpRequest</text>
  </g>
  <g
     transform="translate(-20,-48)"
     id="g132"
     style="font-size:12px;font-style:normal;font-weight:400;fill:none;stroke:#000000;stroke-width:1;stroke-linecap:butt;stroke-linejoin:bevel;stroke-opacity:1;font-family:LMRoman10">
    <polyline
       style="fill:none"
       id="polyline134"
       points="1027.5,71 1106.5,71 "
       vector-effect="none" />
  </g>
  <g
     transform="translate(-20,-48)"
     id="g136"
     style="font-size:11px;font-style:normal;font-weight:400;fill:none;stroke:#000000;stroke-width:1;stroke-linecap:square;stroke-linejoin:bevel;stroke-opacity:1;stroke-dasharray:4, 2;stroke-dashoffset:0;font-family:Droid Sans">
    <polyline
       style="fill:none"
       id="polyline138"
       points="1067,81 1067,896 "
       vector-effect="non-scaling-stroke" />
  </g>
  <path
     d="m 1038,791 17,0 0,37 -17,0 0,-37"
     id="path74"
     style="font-size:11px;font-style:normal;font-weight:400;fill:#ffffff;stroke:#000000;stroke-width:1;stroke-linecap:square;stroke-linejoin:bevel;stroke-opacity:1;font-family:Droid Sans" />
  <path
     inkscape:connector-curvature="0"
     style="font-size:11px;font-style:normal;font-weight:400;fill:#000000;fill-opacity:1;fill-rule:evenodd;stroke:#000000;stroke-width:1.05086422;stroke-linecap:square;stroke-linejoin:bevel;stroke-opacity:1;font-family:Droid Sans"
     id="path142"
     d="m 91.974562,57 c 0,2.746956 -2.22761,4.974568 -4.974565,4.974568 -2.746955,0 -4.974565,-2.227612 -4.974565,-4.974568 0,-2.746956 2.22761,-4.974568 4.974565,-4.974568 2.746955,0 4.974565,2.227612 4.974565,4.974568" />
  <polyline
     vector-effect="non-scaling-stroke"
     points="206,105 202,102 "
     id="polyline144"
     style="font-size:11px;font-style:normal;font-weight:400;fill:none;stroke:#000000;stroke-width:1.05623698;stroke-linecap:square;stroke-linejoin:bevel;stroke-opacity:1;font-family:Droid Sans"
     transform="matrix(0.89634931,0,0,1,-7.8276307,-48)" />
  <polyline
     vector-effect="non-scaling-stroke"
     points="206,105 202,108 "
     id="polyline146"
     style="font-size:11px;font-style:normal;font-weight:400;fill:none;stroke:#000000;stroke-width:1.05623698;stroke-linecap:square;stroke-linejoin:bevel;stroke-opacity:1;font-family:Droid Sans"
     transform="matrix(0.89634931,0,0,1,-7.8276307,-48)" />
  <polyline
     vector-effect="non-scaling-stroke"
     points="102,105 206,105 "
     id="polyline148"
     style="font-size:11px;font-style:normal;font-weight:400;fill:none;stroke:#000000;stroke-width:1.05623698;stroke-linecap:square;stroke-linejoin:bevel;stroke-opacity:1;font-family:Droid Sans"
     transform="matrix(0.91138482,0,0,1,-10.961252,-48)" />
  <g
     transform="translate(-20,-48)"
     id="g150"
     style="font-size:11px;font-style:normal;font-weight:400;fill:#ffffff;fill-opacity:1;fill-rule:evenodd;stroke:none;font-family:Droid Sans">
    <path
       d="m 711,188 17,0 0,32 -17,0 0,-32"
       id="path152"
       style="fill-rule:evenodd" />
  </g>
  <path
     inkscape:connector-curvature="0"
     style="font-size:11px;font-style:normal;font-weight:400;fill:none;stroke:#000000;stroke-width:1;stroke-linecap:square;stroke-linejoin:bevel;stroke-opacity:1;font-family:Droid Sans"
     id="path156"
     d="M 691.23404,140 708,140 l 0,32 -16.76596,0 0,-32" />
  <polyline
     vector-effect="non-scaling-stroke"
     points="206,192 711,192 "
     id="polyline158"
     style="font-size:11px;font-style:normal;font-weight:400;fill:none;stroke:#000000;stroke-width:1.0069555;stroke-linecap:square;stroke-linejoin:bevel;stroke-opacity:1;font-family:Droid Sans"
     transform="matrix(0.98223452,0,0,1,-7.1346992,-48)" />
  <path
     inkscape:connector-curvature="0"
     style="font-size:11px;font-style:normal;font-weight:400;fill:#000000;fill-opacity:1;fill-rule:evenodd;stroke:#000000;stroke-width:0.99999994;stroke-linecap:square;stroke-linejoin:bevel;stroke-opacity:1;font-family:Droid Sans"
     id="path162"
     d="m 690.5161,143.9603 -3.92157,-3 0,6 3.92157,-3" />
  <polyline
     vector-effect="non-scaling-stroke"
     points="206,217 210,214 "
     id="polyline164"
     style="font-size:11px;font-style:normal;font-weight:400;fill:none;stroke:#000000;stroke-width:1.00994945;stroke-linecap:square;stroke-linejoin:bevel;stroke-opacity:1;font-family:Droid Sans"
     transform="matrix(0.98039412,0,0,1,-6.8858238,-48.0794)" />
  <polyline
     vector-effect="non-scaling-stroke"
     points="206,217 210,220 "
     id="polyline166"
     style="font-size:11px;font-style:normal;font-weight:400;fill:none;stroke:#000000;stroke-width:1.00994945;stroke-linecap:square;stroke-linejoin:bevel;stroke-opacity:1;font-family:Droid Sans"
     transform="matrix(0.98039412,0,0,1,-7.1120195,-48)" />
  <g
     transform="matrix(0.98108055,0,0,1,-6.548271,-48)"
     id="g168"
     style="font-size:11px;font-style:normal;font-weight:400;fill:#000000;fill-opacity:1;fill-rule:evenodd;stroke:#000000;stroke-width:1.00991952;stroke-linecap:square;stroke-linejoin:bevel;stroke-opacity:1;stroke-dasharray:1.00991953, 2.01983906;stroke-dashoffset:0;font-family:Droid Sans">
    <polyline
       style="fill:none;stroke-width:1.00991952"
       id="polyline170"
       points="206,217 711,217 "
       vector-effect="non-scaling-stroke" />
  </g>
  <g
     transform="translate(-20,-48)"
     id="g172"
     style="font-size:11px;font-style:normal;font-weight:400;fill:#ffffff;fill-opacity:1;fill-rule:evenodd;stroke:none;font-family:Droid Sans">
    <path
       d="m 795,250 17,0 0,32 -17,0 0,-32"
       id="path174"
       style="fill-rule:evenodd" />
  </g>
  <g
     transform="matrix(0.98517647,0,0,1,-7.9632931,-48)"
     id="g176"
     style="font-size:11px;font-style:normal;font-weight:400;fill:none;stroke:#000000;stroke-width:1.00749516;stroke-linecap:square;stroke-linejoin:bevel;stroke-opacity:1;font-family:Droid Sans">
    <path
       d="m 795,250 17,0 0,32 -17,0 0,-32"
       id="path178"
       style="stroke-width:1.00749516" />
    <polyline
       style="fill:none;stroke-width:1.00749516"
       id="polyline180"
       points="206,254 795,254 "
       vector-effect="non-scaling-stroke" />
  </g>
  <path
     inkscape:connector-curvature="0"
     style="font-size:11px;font-style:normal;font-weight:400;fill:#000000;fill-opacity:1;fill-rule:evenodd;stroke:#000000;stroke-width:0.99999994;stroke-linecap:square;stroke-linejoin:bevel;stroke-opacity:1;font-family:Droid Sans"
     id="path184"
     d="m 774.806,206 -3.93277,-3 0,6 3.93277,-3" />
  <polyline
     vector-effect="non-scaling-stroke"
     points="206,279 210,276 "
     id="polyline186"
     style="font-size:11px;font-style:normal;font-weight:400;fill:none;stroke:#000000;stroke-width:1.00850987;stroke-linecap:square;stroke-linejoin:bevel;stroke-opacity:1;font-family:Droid Sans"
     transform="matrix(0.98319496,0,0,1,-7.4507933,-48)" />
  <polyline
     vector-effect="non-scaling-stroke"
     points="206,279 210,282 "
     id="polyline188"
     style="font-size:11px;font-style:normal;font-weight:400;fill:none;stroke:#000000;stroke-width:1.00850987;stroke-linecap:square;stroke-linejoin:bevel;stroke-opacity:1;font-family:Droid Sans"
     transform="matrix(0.98319496,0,0,1,-7.4507933,-48)" />
  <g
     transform="matrix(0.98436534,0,0,1,-7.5704439,-48)"
     id="g190"
     style="font-size:11px;font-style:normal;font-weight:400;fill:#000000;fill-opacity:1;fill-rule:evenodd;stroke:#000000;stroke-width:1.01005459;stroke-linecap:square;stroke-linejoin:bevel;stroke-opacity:1;stroke-dasharray:1.01005463, 2.02010926;stroke-dashoffset:0;font-family:Droid Sans">
    <polyline
       style="fill:none;stroke-width:1.01005459"
       id="polyline192"
       points="206,279 795,279 "
       vector-effect="non-scaling-stroke" />
  </g>
  <g
     transform="translate(-20,-48)"
     id="g194"
     style="font-size:12px;font-style:normal;font-weight:400;fill:none;stroke:#323232;stroke-width:1;stroke-linecap:square;stroke-linejoin:bevel;stroke-opacity:1;font-family:LMRoman10">
    <text
       x="254.5"
       y="499"
       id="text196"
       xml:space="preserve"
       style="font-size:12px;font-style:normal;font-weight:400;fill:#323232;fill-opacity:1;stroke:none;font-family:LMRoman10">getWayIDs(rect : const Rect&amp;) : vector&lt; int &gt;*</text>
  </g>
  <g
     transform="translate(-20,-48)"
     id="g198"
     style="font-size:12px;font-style:normal;font-weight:400;fill:none;stroke:#323232;stroke-width:1;stroke-linecap:square;stroke-linejoin:bevel;stroke-opacity:1;font-family:LMRoman10">
    <text
       x="257.5"
       y="568"
       id="text200"
       xml:space="preserve"
       style="font-size:12px;font-style:normal;font-weight:400;fill:#323232;fill-opacity:1;stroke:none;font-family:LMRoman10">getRelationIDs(rect : const Rect&amp;) : vector&lt; int &gt;*</text>
  </g>
  <g
     transform="translate(-10.400006,-48)"
     id="g202"
     style="font-size:12px;font-style:normal;font-weight:400;fill:none;stroke:#323232;stroke-width:1;stroke-linecap:square;stroke-linejoin:bevel;stroke-opacity:1;font-family:LMRoman10">
    <text
       x="249.5"
       y="718"
       id="text204"
       xml:space="preserve"
       style="font-size:12px;font-style:normal;font-weight:400;fill:#323232;fill-opacity:1;stroke:none;font-family:LMRoman10">renderTile(map : RenderAttributes&amp;, tile : Tile*)</text>
  </g>
  <g
     transform="translate(-20,-48)"
     id="g206"
     style="font-size:12px;font-style:normal;font-weight:400;fill:none;stroke:#323232;stroke-width:1;stroke-linecap:square;stroke-linejoin:bevel;stroke-opacity:1;font-family:LMRoman10">
    <text
       x="248.5"
       y="830"
       id="text208"
       xml:space="preserve"
       style="font-size:12px;font-style:normal;font-weight:400;fill:#323232;fill-opacity:1;stroke:none;font-family:LMRoman10">answer(tile : const Tile*, statusCode : int)</text>
  </g>
  <g
     transform="translate(-20,-48)"
     id="g210"
     style="font-size:12px;font-style:normal;font-weight:400;fill:none;stroke:#323232;stroke-width:1;stroke-linecap:square;stroke-linejoin:bevel;stroke-opacity:1;font-family:LMRoman10">
    <text
       x="250.5"
       y="125"
       id="text212"
       xml:space="preserve"
       style="font-size:12px;font-style:normal;font-weight:400;fill:#323232;fill-opacity:1;stroke:none;font-family:LMRoman10">Create(url : const string&amp;) : TileIdentifier*</text>
  </g>
  <g
     transform="translate(-7.2000076,-48)"
     id="g214"
     style="font-size:12px;font-style:normal;font-weight:400;fill:none;stroke:#323232;stroke-width:1;stroke-linecap:square;stroke-linejoin:bevel;stroke-opacity:1;font-family:LMRoman10">
    <text
       x="246.5"
       y="648"
       id="text216"
       xml:space="preserve"
       style="font-size:12px;font-style:normal;font-weight:400;fill:#323232;fill-opacity:1;stroke:none;font-family:LMRoman10">match(nodeIDs, wayIDs, relationIDs)</text>
  </g>
  <g
     transform="translate(-20,-48)"
     id="g218"
     style="font-size:12px;font-style:normal;font-weight:400;fill:none;stroke:#323232;stroke-width:1;stroke-linecap:square;stroke-linejoin:bevel;stroke-opacity:1;font-family:LMRoman10">
    <text
       x="381"
       y="460"
       id="text220"
       xml:space="preserve"
       style="font-size:12px;font-style:normal;font-weight:400;fill:#323232;fill-opacity:1;stroke:none;font-family:LMRoman10">&lt;&lt;nodeIDs&gt;&gt;</text>
  </g>
  <g
     transform="translate(-20,-48)"
     id="g222"
     style="font-size:12px;font-style:normal;font-weight:400;fill:none;stroke:#323232;stroke-width:1;stroke-linecap:square;stroke-linejoin:bevel;stroke-opacity:1;font-family:LMRoman10">
    <text
       x="119.5"
       y="96"
       id="text224"
       xml:space="preserve"
       style="font-size:12px;font-style:normal;font-weight:400;fill:#323232;fill-opacity:1;stroke:none;font-family:LMRoman10">process()</text>
  </g>
  <g
     transform="translate(-10.400006,-48)"
     id="g226"
     style="font-size:12px;font-style:normal;font-weight:400;fill:none;stroke:#323232;stroke-width:1;stroke-linecap:square;stroke-linejoin:bevel;stroke-opacity:1;font-family:LMRoman10">
    <text
       x="243.5"
       y="179"
       id="text228"
       xml:space="preserve"
       style="font-size:12px;font-style:normal;font-weight:400;fill:#323232;fill-opacity:1;stroke:none;font-family:LMRoman10">getTile(tl : TileIdentifier*) : Tile*</text>
  </g>
  <g
     transform="translate(0.7999883,-48)"
     id="g230"
     style="font-size:12px;font-style:normal;font-weight:400;fill:none;stroke:#323232;stroke-width:1;stroke-linecap:square;stroke-linejoin:bevel;stroke-opacity:1;font-family:LMRoman10">
    <text
       x="231"
       y="241"
       id="text232"
       xml:space="preserve"
       style="font-size:12px;font-style:normal;font-weight:400;fill:#323232;fill-opacity:1;stroke:none;font-family:LMRoman10">isRendered() : bool</text>
  </g>
  <g
     transform="translate(-20,-48)"
     id="g234"
     style="font-size:12px;font-style:normal;font-weight:400;fill:none;stroke:#323232;stroke-width:1;stroke-linecap:square;stroke-linejoin:bevel;stroke-opacity:1;font-family:LMRoman10">
    <text
       x="258"
       y="429"
       id="text236"
       xml:space="preserve"
       style="font-size:12px;font-style:normal;font-weight:400;fill:#323232;fill-opacity:1;stroke:none;font-family:LMRoman10">getNodeIDs(rect : const Rect&amp;) : vector&lt; int &gt;*</text>
  </g>
  <g
     transform="translate(-20,-48)"
     id="g238"
     style="font-size:12px;font-style:normal;font-weight:400;fill:#ffffff;fill-opacity:1;fill-rule:evenodd;stroke:#000000;stroke-width:1;stroke-linecap:square;stroke-linejoin:bevel;stroke-opacity:1;font-family:LMRoman10">
    <path
       d="m 618,378 90,0 0,33 -90,0 0,-33"
       id="path240"
       style="fill-rule:evenodd" />
    <text
       x="635.5"
       y="399"
       id="text242"
       xml:space="preserve"
       style="font-size:12px;font-style:normal;font-weight:400;fill:#000000;fill-opacity:1;stroke:none;font-family:LMRoman10"> : Geodata</text>
  </g>
  <g
     transform="translate(-20,-48)"
     id="g244"
     style="font-size:12px;font-style:normal;font-weight:400;fill:none;stroke:#000000;stroke-width:1;stroke-linecap:butt;stroke-linejoin:bevel;stroke-opacity:1;font-family:LMRoman10">
    <polyline
       style="fill:none"
       id="polyline246"
       points="635.5,401 690.5,401 "
       vector-effect="none" />
  </g>
  <g
     transform="translate(-20,-48)"
     id="g256"
     style="font-size:12px;font-style:normal;font-weight:400;fill:none;stroke:#323232;stroke-width:1;stroke-linecap:square;stroke-linejoin:bevel;stroke-opacity:1;font-family:LMRoman10">
    <text
       x="380.5"
       y="531"
       id="text258"
       xml:space="preserve"
       style="font-size:12px;font-style:normal;font-weight:400;fill:#323232;fill-opacity:1;stroke:none;font-family:LMRoman10">&lt;&lt;wayIDs&gt;&gt;</text>
  </g>
  <g
     transform="translate(-20,-48)"
     id="g260"
     style="font-size:12px;font-style:normal;font-weight:400;fill:none;stroke:#323232;stroke-width:1;stroke-linecap:square;stroke-linejoin:bevel;stroke-opacity:1;font-family:LMRoman10">
    <text
       x="377.5"
       y="601"
       id="text262"
       xml:space="preserve"
       style="font-size:12px;font-style:normal;font-weight:400;fill:#323232;fill-opacity:1;stroke:none;font-family:LMRoman10">&lt;&lt;relationIDs&gt;&gt;</text>
  </g>
  <g
     transform="translate(-20,-48)"
     id="g264"
     style="font-size:12px;font-style:normal;font-weight:400;fill:#ffffff;fill-opacity:1;fill-rule:evenodd;stroke:none;font-family:LMRoman10">
    <path
       d="m 776,657 17,0 0,32 -17,0 0,-32"
       id="path266"
       style="fill-rule:evenodd" />
  </g>
  <path
     inkscape:connector-curvature="0"
     style="font-size:12px;font-style:normal;font-weight:400;fill:none;stroke:#000000;stroke-width:1;stroke-linecap:square;stroke-linejoin:bevel;stroke-opacity:1;font-family:LMRoman10"
     id="path270"
     d="M 756.28617,609 773,609 l 0,32 -16.71383,0 0,-32" />
  <polyline
     vector-effect="non-scaling-stroke"
     points="206,661 776,661 "
     id="polyline272"
     style="font-size:12px;font-style:normal;font-weight:400;fill:none;stroke:#000000;stroke-width:1.00852466;stroke-linecap:square;stroke-linejoin:bevel;stroke-opacity:1;font-family:LMRoman10"
     transform="matrix(0.98469724,0,0,1,-7.8388855,-48)" />
  <path
     inkscape:connector-curvature="0"
     style="font-size:12px;font-style:normal;font-weight:400;fill:#000000;fill-opacity:1;fill-rule:evenodd;stroke:#000000;stroke-width:1;stroke-linecap:square;stroke-linejoin:bevel;stroke-opacity:1;font-family:LMRoman10"
     id="path276"
     d="m 755.4764,613 -3.93685,-3 0,6 3.93685,-3" />
  <polyline
     vector-effect="non-scaling-stroke"
     points="206,686 210,683 "
     id="polyline278"
     style="font-size:12px;font-style:normal;font-weight:400;fill:none;stroke:#000000;stroke-width:1.00798845;stroke-linecap:square;stroke-linejoin:bevel;stroke-opacity:1;font-family:LMRoman10"
     transform="matrix(0.98421255,0,0,1,-7.7647255,-48)" />
  <polyline
     vector-effect="non-scaling-stroke"
     points="206,686 210,689 "
     id="polyline280"
     style="font-size:12px;font-style:normal;font-weight:400;fill:none;stroke:#000000;stroke-width:1.00798845;stroke-linecap:square;stroke-linejoin:bevel;stroke-opacity:1;font-family:LMRoman10"
     transform="matrix(0.98421255,0,0,1,-7.7647255,-48)" />
  <g
     transform="matrix(0.98110486,0,0,1,-5.3373681,-48)"
     id="g282"
     style="font-size:12px;font-style:normal;font-weight:400;fill:#000000;fill-opacity:1;fill-rule:evenodd;stroke:#000000;stroke-width:1.00958359;stroke-linecap:square;stroke-linejoin:bevel;stroke-opacity:1;stroke-dasharray:1.0095836, 2.0191672;stroke-dashoffset:0;font-family:LMRoman10">
    <polyline
       style="fill:none;stroke-width:1.00958359"
       id="polyline284"
       points="206,686 776,686 "
       vector-effect="non-scaling-stroke" />
  </g>
  <g
     transform="translate(-20,-48)"
     id="g286"
     style="font-size:12px;font-style:normal;font-weight:400;fill:#ffffff;fill-opacity:1;fill-rule:evenodd;stroke:none;font-family:LMRoman10">
    <path
       d="m 654,508 17,0 0,32 -17,0 0,-32"
       id="path288"
       style="fill-rule:evenodd" />
  </g>
  <path
     inkscape:connector-curvature="0"
     style="font-size:12px;font-style:normal;font-weight:400;fill:none;stroke:#000000;stroke-width:1;stroke-linecap:square;stroke-linejoin:bevel;stroke-opacity:1;font-family:LMRoman10"
     id="path292"
     d="M 634.36125,460 651,460 l 0,32 -16.63875,0 0,-32" />
  <polyline
     vector-effect="non-scaling-stroke"
     points="206,512 654,512 "
     id="polyline294"
     style="font-size:12px;font-style:normal;font-weight:400;fill:none;stroke:#000000;stroke-width:1.0107975;stroke-linecap:square;stroke-linejoin:bevel;stroke-opacity:1;font-family:LMRoman10"
     transform="matrix(0.98016599,0,0,1,-6.6673043,-48)" />
  <path
     inkscape:connector-curvature="0"
     style="font-size:12px;font-style:normal;font-weight:400;fill:#000000;fill-opacity:1;fill-rule:evenodd;stroke:#000000;stroke-width:1;stroke-linecap:square;stroke-linejoin:bevel;stroke-opacity:1;font-family:LMRoman10"
     id="path298"
     d="m 633.56144,464 -3.92766,-3 0,6 3.92766,-3" />
  <polyline
     vector-effect="non-scaling-stroke"
     points="206,537 210,534 "
     id="polyline300"
     style="font-size:12px;font-style:normal;font-weight:400;fill:none;stroke:#000000;stroke-width:1.00916791;stroke-linecap:square;stroke-linejoin:bevel;stroke-opacity:1;font-family:LMRoman10"
     transform="matrix(0.9819133,0,0,1,-7.6335883,-48)" />
  <polyline
     vector-effect="non-scaling-stroke"
     points="206,537 210,540 "
     id="polyline302"
     style="font-size:12px;font-style:normal;font-weight:400;fill:none;stroke:#000000;stroke-width:1.00916791;stroke-linecap:square;stroke-linejoin:bevel;stroke-opacity:1;font-family:LMRoman10"
     transform="matrix(0.9819133,0,0,1,-7.6335883,-48)" />
  <g
     transform="matrix(0.97796794,0,0,1,-5.5910344,-48)"
     id="g304"
     style="font-size:12px;font-style:normal;font-weight:400;fill:#000000;fill-opacity:1;fill-rule:evenodd;stroke:#000000;stroke-width:1.0112015;stroke-linecap:square;stroke-linejoin:bevel;stroke-opacity:1;stroke-dasharray:1.01120147, 2.02240293;stroke-dashoffset:0;font-family:LMRoman10">
    <polyline
       style="fill:none;stroke-width:1.0112015"
       id="polyline306"
       points="206,537 654,537 "
       vector-effect="non-scaling-stroke" />
  </g>
  <g
     transform="translate(-20,-48)"
     id="g308"
     style="font-size:12px;font-style:normal;font-weight:400;fill:#ffffff;fill-opacity:1;fill-rule:evenodd;stroke:none;font-family:LMRoman10">
    <path
       d="m 654,577 17,0 0,32 -17,0 0,-32"
       id="path310"
       style="fill-rule:evenodd" />
  </g>
  <g
     transform="matrix(0.98068159,0,0,1,-7.0373484,-48)"
     id="g312"
     style="font-size:12px;font-style:normal;font-weight:400;fill:none;stroke:#000000;stroke-width:1.00980139;stroke-linecap:square;stroke-linejoin:bevel;stroke-opacity:1;font-family:LMRoman10">
    <path
       d="m 654,577 17,0 0,32 -17,0 0,-32"
       id="path314"
       style="stroke-width:1.00980139" />
    <polyline
       style="fill:none;stroke-width:1.00980139"
       id="polyline316"
       points="206,581 654,581 "
       vector-effect="non-scaling-stroke" />
  </g>
  <path
     inkscape:connector-curvature="0"
     style="font-size:12px;font-style:normal;font-weight:400;fill:#000000;fill-opacity:1;fill-rule:evenodd;stroke:#000000;stroke-width:1;stroke-linecap:square;stroke-linejoin:bevel;stroke-opacity:1;font-family:LMRoman10"
     id="path320"
     d="m 633.6472,533 -3.92766,-3 0,6 3.92766,-3" />
  <polyline
     vector-effect="non-scaling-stroke"
     points="206,606 210,603 "
     id="polyline322"
     style="font-size:12px;font-style:normal;font-weight:400;fill:none;stroke:#000000;stroke-width:1.00916791;stroke-linecap:square;stroke-linejoin:bevel;stroke-opacity:1;font-family:LMRoman10"
     transform="matrix(0.9819133,0,0,1,-7.5541886,-48)" />
  <polyline
     vector-effect="non-scaling-stroke"
     points="206,606 210,609 "
     id="polyline324"
     style="font-size:12px;font-style:normal;font-weight:400;fill:none;stroke:#000000;stroke-width:1.00916791;stroke-linecap:square;stroke-linejoin:bevel;stroke-opacity:1;font-family:LMRoman10"
     transform="matrix(0.9819133,0,0,1,-7.5541886,-48)" />
  <g
     transform="matrix(0.97997086,0,0,1,-6.9009403,-48)"
     id="g326"
     style="font-size:12px;font-style:normal;font-weight:400;fill:#000000;fill-opacity:1;fill-rule:evenodd;stroke:#000000;stroke-width:1.0101676;stroke-linecap:square;stroke-linejoin:bevel;stroke-opacity:1;stroke-dasharray:1.01016756, 2.02033513;stroke-dashoffset:0;font-family:LMRoman10">
    <polyline
       style="fill:none;stroke-width:1.0101676"
       id="polyline328"
       points="206,606 654,606 "
       vector-effect="non-scaling-stroke" />
  </g>
  <g
     transform="translate(-20,-48)"
     id="g330"
     style="font-size:12px;font-style:normal;font-weight:400;fill:#ffffff;fill-opacity:1;fill-rule:evenodd;stroke:none;font-family:LMRoman10">
    <path
       d="m 899,727 17,0 0,46 -17,0 0,-46"
       id="path332"
       style="fill-rule:evenodd" />
  </g>
  <g
     transform="matrix(0.9873478,0,0,1,-8.4105879,-48)"
     id="g334"
     style="font-size:12px;font-style:normal;font-weight:400;fill:none;stroke:#000000;stroke-width:1.00638676;stroke-linecap:square;stroke-linejoin:bevel;stroke-opacity:1;font-family:LMRoman10">
    <path
       d="m 899,727 17,0 0,46 -17,0 0,-46"
       id="path336"
       style="stroke-width:1.00638676" />
    <polyline
       style="fill:none;stroke-width:1.00638676"
       id="polyline338"
       points="206,731 899,731 "
       vector-effect="non-scaling-stroke" />
  </g>
  <path
     inkscape:connector-curvature="0"
     style="font-size:12px;font-style:normal;font-weight:400;fill:#000000;fill-opacity:1;fill-rule:evenodd;stroke:#000000;stroke-width:0.99999994;stroke-linecap:square;stroke-linejoin:bevel;stroke-opacity:1;font-family:LMRoman10"
     id="path342"
     d="m 878.3176,683 -3.95327,-3 0,6 3.95327,-3" />
  <polyline
     vector-effect="non-scaling-stroke"
     points="206,770 210,767 "
     id="polyline344"
     style="font-size:12px;font-style:normal;font-weight:400;fill:none;stroke:#000000;stroke-width:1.00589323;stroke-linecap:square;stroke-linejoin:bevel;stroke-opacity:1;font-family:LMRoman10"
     transform="matrix(0.98831683,0,0,1,-8.7145156,-48)" />
  <polyline
     vector-effect="non-scaling-stroke"
     points="206,770 210,773 "
     id="polyline346"
     style="font-size:12px;font-style:normal;font-weight:400;fill:none;stroke:#000000;stroke-width:1.00589323;stroke-linecap:square;stroke-linejoin:bevel;stroke-opacity:1;font-family:LMRoman10"
     transform="matrix(0.98831683,0,0,1,-8.7145156,-48)" />
  <polyline
     vector-effect="non-scaling-stroke"
     points="206,770 899,770 "
     id="polyline350"
     style="font-size:12px;font-style:normal;font-weight:400;fill:none;stroke:#000000;stroke-width:1.00720131;stroke-linecap:square;stroke-linejoin:bevel;stroke-opacity:1;stroke-dasharray:1.00720132, 2.01440265;stroke-dashoffset:0;font-family:LMRoman10"
     transform="matrix(0.98575145,0,0,1,-7.1905519,-48)" />
  <g
     transform="translate(-20,-48)"
     id="g352"
     style="font-size:12px;font-style:normal;font-weight:400;fill:none;stroke:#000000;stroke-width:1;stroke-linecap:square;stroke-linejoin:bevel;stroke-opacity:1;font-family:LMRoman10">
    <path
       d="m 20,331 993,0 0,478 -993,0 0,-478"
       id="path354" />
  </g>
  <g
     transform="translate(-20,-48)"
     id="g356"
     style="font-size:12px;font-style:normal;font-weight:400;fill:none;stroke:#000000;stroke-width:1;stroke-linecap:square;stroke-linejoin:bevel;stroke-opacity:1;font-family:LMRoman10">
    <text
       x="25"
       y="365"
       id="text358"
       xml:space="preserve"
       style="font-size:12px;font-style:normal;font-weight:400;fill:#000000;fill-opacity:1;stroke:none;font-family:LMRoman10">[isRendered == FALSE]</text>
    <text
       x="25"
       y="345"
       id="text360"
       xml:space="preserve"
       style="font-size:12px;font-style:normal;font-weight:400;fill:#000000;fill-opacity:1;stroke:none;font-family:LMRoman10">alt</text>
  </g>
  <g
     transform="translate(-20,-48)"
     id="g370"
     style="font-size:12px;font-style:normal;font-weight:400;fill:none;stroke:#ff0000;stroke-width:1;stroke-linecap:square;stroke-linejoin:bevel;stroke-opacity:1;font-family:LMRoman10">
    <polyline
       style="fill:none"
       id="polyline372"
       points="20,351 65,351 "
       vector-effect="non-scaling-stroke" />
    <polyline
       style="fill:none"
       id="polyline374"
       points="65,351 75,341 "
       vector-effect="non-scaling-stroke" />
    <polyline
       style="fill:none"
       id="polyline376"
       points="75,341 75,331 "
       vector-effect="non-scaling-stroke" />
  </g>
  <g
     transform="translate(-20,-48)"
     id="g378"
     style="font-size:12px;font-style:normal;font-weight:400;fill:#ffffff;fill-opacity:1;fill-rule:evenodd;stroke:none;font-family:LMRoman10">
    <path
       d="m 654,438 17,0 0,32 -17,0 0,-32"
       id="path380"
       style="fill-rule:evenodd" />
  </g>
  <g
     transform="matrix(0.98068159,0,0,1,-7.0373484,-48)"
     id="g382"
     style="font-size:12px;font-style:normal;font-weight:400;fill:none;stroke:#000000;stroke-width:1.00980139;stroke-linecap:square;stroke-linejoin:bevel;stroke-opacity:1;font-family:LMRoman10">
    <path
       d="m 654,438 17,0 0,32 -17,0 0,-32"
       id="path384"
       style="stroke-width:1.00980139" />
    <polyline
       style="fill:none;stroke-width:1.00980139"
       id="polyline386"
       points="206,442 654,442 "
       vector-effect="non-scaling-stroke" />
  </g>
  <path
     inkscape:connector-curvature="0"
     style="font-size:12px;font-style:normal;font-weight:400;fill:#000000;fill-opacity:1;fill-rule:evenodd;stroke:#000000;stroke-width:1;stroke-linecap:square;stroke-linejoin:bevel;stroke-opacity:1;font-family:LMRoman10"
     id="path390"
     d="m 633.44915,394 -3.91961,-3 0,6 3.91961,-3" />
  <polyline
     vector-effect="non-scaling-stroke"
     points="206,467 210,464 "
     id="polyline392"
     style="font-size:12px;font-style:normal;font-weight:400;fill:none;stroke:#000000;stroke-width:1.01020217;stroke-linecap:square;stroke-linejoin:bevel;stroke-opacity:1;font-family:LMRoman10"
     transform="matrix(0.97990367,0,0,1,-6.8770964,-48)" />
  <polyline
     vector-effect="non-scaling-stroke"
     points="206,467 210,470 "
     id="polyline394"
     style="font-size:12px;font-style:normal;font-weight:400;fill:none;stroke:#000000;stroke-width:1.01020217;stroke-linecap:square;stroke-linejoin:bevel;stroke-opacity:1;font-family:LMRoman10"
     transform="matrix(0.97990367,0,0,1,-6.8770964,-48)" />
  <g
     transform="matrix(0.97796794,0,0,1,-5.5910344,-48)"
     id="g396"
     style="font-size:12px;font-style:normal;font-weight:400;fill:#000000;fill-opacity:1;fill-rule:evenodd;stroke:#000000;stroke-width:1.0112015;stroke-linecap:square;stroke-linejoin:bevel;stroke-opacity:1;stroke-dasharray:1.01120147, 2.02240293;stroke-dashoffset:0;font-family:LMRoman10">
    <polyline
       style="fill:none;stroke-width:1.0112015"
       id="polyline398"
       points="206,467 654,467 "
       vector-effect="non-scaling-stroke" />
  </g>
  <g
     transform="translate(81.808132,-15.507782)"
     id="g214-3"
     style="font-size:12px;font-style:normal;font-weight:400;fill:none;stroke:#323232;stroke-width:1;stroke-linecap:square;stroke-linejoin:bevel;stroke-opacity:1;font-family:LMRoman10">
    <text
       x="246.5"
       y="648"
       id="text216-2"
       xml:space="preserve"
       style="font-size:12px;font-style:normal;font-weight:400;fill:#323232;fill-opacity:1;stroke:none;font-family:LMRoman10">&lt;&lt;map : RenderAttributes&gt;&gt;</text>
  </g>
  <g
     transform="translate(-36.545681,-436.36008)"
     id="g260-3"
     style="font-size:12px;font-style:normal;font-weight:400;fill:none;stroke:#323232;stroke-width:1;stroke-linecap:square;stroke-linejoin:bevel;stroke-opacity:1;font-family:LMRoman10">
    <text
       x="377.5"
       y="601"
       id="text262-8"
       xml:space="preserve"
       style="font-size:12px;font-style:normal;font-weight:400;fill:#323232;fill-opacity:1;stroke:none;font-family:LMRoman10">&lt;&lt;tile : Tile&gt;&gt;</text>
  </g>
  <g
     transform="translate(-53.446049,-374.74585)"
     id="g260-3-5"
     style="font-size:12px;font-style:normal;font-weight:400;fill:none;stroke:#323232;stroke-width:1;stroke-linecap:square;stroke-linejoin:bevel;stroke-opacity:1;font-family:LMRoman10">
    <text
       x="377.5"
       y="601"
       id="text262-8-3"
       xml:space="preserve"
       style="font-size:12px;font-style:normal;font-weight:400;fill:#323232;fill-opacity:1;stroke:none;font-family:LMRoman10">&lt;&lt;isRendered : bool&gt;&gt;</text>
  </g>
</svg>
