<?xml version="1.0" encoding="UTF-8" standalone="no"?>
<svg width="182.033mm" height="36.3361mm"
 viewBox="0 0 516 103"
 xmlns="http://www.w3.org/2000/svg" xmlns:xlink="http://www.w3.org/1999/xlink"  version="1.2" baseProfile="tiny">
<title>Qt Svg Document</title>
<desc>Generated with Qt</desc>
<defs>
</defs>
<g fill="none" stroke="black" stroke-width="1" fill-rule="evenodd" stroke-linecap="square" stroke-linejoin="bevel" >

<g fill="#ffffff" fill-opacity="1" stroke="#000000" stroke-opacity="1" stroke-width="1" stroke-linecap="square" stroke-linejoin="bevel" transform="matrix(1,0,0,1,-30,-254)"
font-family="Ubuntu" font-size="10" font-weight="400" font-style="normal" 
>
<path vector-effect="non-scaling-stroke" fill-rule="evenodd" d="M30,254 L546,254 L546,357 L30,357 L30,254"/>
</g>

<g fill="#ffffff" fill-opacity="1" stroke="#000000" stroke-opacity="1" stroke-width="1" stroke-linecap="square" stroke-linejoin="bevel" transform="matrix(1,0,0,1,-30,-254)"
font-family="LMRoman10" font-size="12" font-weight="700" font-style="normal" 
>
<text fill="#000000" fill-opacity="1" stroke="none" xml:space="preserve" x="254" y="270" font-family="LMRoman10" font-size="12" font-weight="700" font-style="normal" 
 >HttpRequest</text>
<polyline fill="none" vector-effect="non-scaling-stroke" points="30,277 545,277 " />
</g>

<g fill="#ffffff" fill-opacity="1" stroke="#000000" stroke-opacity="1" stroke-width="1" stroke-linecap="square" stroke-linejoin="bevel" transform="matrix(1,0,0,1,-30,-254)"
font-family="LMRoman10" font-size="12" font-weight="400" font-style="normal" 
>
<polyline fill="none" vector-effect="non-scaling-stroke" points="30,288 545,288 " />
</g>

<g fill="#ffffff" fill-opacity="1" stroke="#000000" stroke-opacity="1" stroke-width="1" stroke-linecap="square" stroke-linejoin="bevel" transform="matrix(1,0,0,1,-30,-254)"
font-family="LMRoman10" font-size="12" font-weight="400" font-style="normal" 
>
<text fill="#000000" fill-opacity="1" stroke="none" xml:space="preserve" x="35" y="304" font-family="LMRoman10" font-size="12" font-weight="400" font-style="normal" 
 >+ Create(httpMessage : const string&amp;, socket : Socket*) : HttpRequest*</text>
</g>

<g fill="none" stroke="#000000" stroke-opacity="1" stroke-width="1" stroke-linecap="butt" stroke-linejoin="bevel" transform="matrix(1,0,0,1,-30,-254)"
font-family="LMRoman10" font-size="12" font-weight="400" font-style="normal" 
>
<polyline fill="none" vector-effect="none" points="35,306 418,306 " />
</g>

<g fill="#ffffff" fill-opacity="1" stroke="#000000" stroke-opacity="1" stroke-width="1" stroke-linecap="square" stroke-linejoin="bevel" transform="matrix(1,0,0,1,-30,-254)"
font-family="LMRoman10" font-size="12" font-weight="400" font-style="normal" 
>
<text fill="#000000" fill-opacity="1" stroke="none" xml:space="preserve" x="35" y="327" font-family="LMRoman10" font-size="12" font-weight="400" font-style="normal" 
 >+ getURL() : const string&amp;</text>
</g>

<g fill="#ffffff" fill-opacity="1" stroke="#000000" stroke-opacity="1" stroke-width="1" stroke-linecap="square" stroke-linejoin="bevel" transform="matrix(1,0,0,1,-30,-254)"
font-family="LMRoman10" font-size="12" font-weight="400" font-style="normal" 
>
<text fill="#000000" fill-opacity="1" stroke="none" xml:space="preserve" x="35" y="350" font-family="LMRoman10" font-size="12" font-weight="400" font-style="normal" 
 >+ answer(tile : const Tile*, statusCode : int)</text>
</g>
</g>
</svg>
