<?xml version="1.0" encoding="UTF-8"?><svg xmlns="http://www.w3.org/2000/svg" xmlns:xlink="http://www.w3.org/1999/xlink" fill-opacity="1" color-rendering="auto" color-interpolation="auto" stroke="black" text-rendering="auto" stroke-linecap="square" width="637" stroke-miterlimit="10" stroke-opacity="1" shape-rendering="auto" fill="black" stroke-dasharray="none" font-weight="normal" stroke-width="1" height="764" font-family="'Dialog'" font-style="normal" stroke-linejoin="miter" font-size="12" stroke-dashoffset="0" image-rendering="auto">
  <!--Generated by ySVG-->
  <defs id="genericDefs"/>
  <g>
    <defs id="defs1">
      <linearGradient x1="996.4023" gradientUnits="userSpaceOnUse" x2="1076.4023" y1="548.6485" y2="598.6485" id="linearGradient1" spreadMethod="pad">
        <stop stop-opacity="1" stop-color="rgb(232,238,247)" offset="0%"/>
        <stop stop-opacity="1" stop-color="rgb(183,201,227)" offset="100%"/>
      </linearGradient>
      <linearGradient x1="982.5784" gradientUnits="userSpaceOnUse" x2="1090.2263" y1="-134.6338" y2="-94.6338" id="linearGradient2" spreadMethod="pad">
        <stop stop-opacity="1" stop-color="rgb(232,238,247)" offset="0%"/>
        <stop stop-opacity="1" stop-color="rgb(183,201,227)" offset="100%"/>
      </linearGradient>
      <linearGradient x1="804.6152" gradientUnits="userSpaceOnUse" x2="903.1752" y1="19.1273" y2="59.1273" id="linearGradient3" spreadMethod="pad">
        <stop stop-opacity="1" stop-color="rgb(232,238,247)" offset="0%"/>
        <stop stop-opacity="1" stop-color="rgb(183,201,227)" offset="100%"/>
      </linearGradient>
      <linearGradient x1="982.5784" gradientUnits="userSpaceOnUse" x2="1090.2263" y1="19.1273" y2="59.1273" id="linearGradient4" spreadMethod="pad">
        <stop stop-opacity="1" stop-color="rgb(232,238,247)" offset="0%"/>
        <stop stop-opacity="1" stop-color="rgb(183,201,227)" offset="100%"/>
      </linearGradient>
      <linearGradient x1="996.4023" gradientUnits="userSpaceOnUse" x2="1076.4023" y1="-64.6338" y2="-24.6338" id="linearGradient5" spreadMethod="pad">
        <stop stop-opacity="1" stop-color="rgb(232,238,247)" offset="0%"/>
        <stop stop-opacity="1" stop-color="rgb(183,201,227)" offset="100%"/>
      </linearGradient>
      <linearGradient x1="996.4023" gradientUnits="userSpaceOnUse" x2="1076.4023" y1="418.2912" y2="458.2912" id="linearGradient6" spreadMethod="pad">
        <stop stop-opacity="1" stop-color="rgb(232,238,247)" offset="0%"/>
        <stop stop-opacity="1" stop-color="rgb(183,201,227)" offset="100%"/>
      </linearGradient>
      <linearGradient x1="800.0712" gradientUnits="userSpaceOnUse" x2="907.7192" y1="113.575" y2="153.575" id="linearGradient7" spreadMethod="pad">
        <stop stop-opacity="1" stop-color="rgb(232,238,247)" offset="0%"/>
        <stop stop-opacity="1" stop-color="rgb(183,201,227)" offset="100%"/>
      </linearGradient>
      <linearGradient x1="982.5784" gradientUnits="userSpaceOnUse" x2="1090.2263" y1="113.575" y2="153.575" id="linearGradient8" spreadMethod="pad">
        <stop stop-opacity="1" stop-color="rgb(232,238,247)" offset="0%"/>
        <stop stop-opacity="1" stop-color="rgb(183,201,227)" offset="100%"/>
      </linearGradient>
      <linearGradient x1="1176.3495" gradientUnits="userSpaceOnUse" x2="1256.3495" y1="113.575" y2="153.575" id="linearGradient9" spreadMethod="pad">
        <stop stop-opacity="1" stop-color="rgb(232,238,247)" offset="0%"/>
        <stop stop-opacity="1" stop-color="rgb(183,201,227)" offset="100%"/>
      </linearGradient>
      <linearGradient x1="1176.3495" gradientUnits="userSpaceOnUse" x2="1256.3495" y1="208.0227" y2="248.0227" id="linearGradient10" spreadMethod="pad">
        <stop stop-opacity="1" stop-color="rgb(232,238,247)" offset="0%"/>
        <stop stop-opacity="1" stop-color="rgb(183,201,227)" offset="100%"/>
      </linearGradient>
      <linearGradient x1="996.4023" gradientUnits="userSpaceOnUse" x2="1076.4023" y1="274.5827" y2="314.5827" id="linearGradient11" spreadMethod="pad">
        <stop stop-opacity="1" stop-color="rgb(232,238,247)" offset="0%"/>
        <stop stop-opacity="1" stop-color="rgb(183,201,227)" offset="100%"/>
      </linearGradient>
      <linearGradient x1="1302.5592" gradientUnits="userSpaceOnUse" x2="1391.5637" y1="-82.2" y2="-52.2" id="linearGradient12" spreadMethod="pad">
        <stop stop-opacity="1" stop-color="rgb(232,238,247)" offset="0%"/>
        <stop stop-opacity="1" stop-color="rgb(183,201,227)" offset="100%"/>
      </linearGradient>
      <linearGradient x1="1302.5592" gradientUnits="userSpaceOnUse" x2="1391.5637" y1="-34.4956" y2="-4.4956" id="linearGradient13" spreadMethod="pad">
        <stop stop-opacity="1" stop-color="rgb(232,238,247)" offset="0%"/>
        <stop stop-opacity="1" stop-color="rgb(183,201,227)" offset="100%"/>
      </linearGradient>
      <linearGradient x1="1302.5592" gradientUnits="userSpaceOnUse" x2="1306.2117" y1="73.2087" y2="76.5383" id="linearGradient14" spreadMethod="pad">
        <stop stop-opacity="1" stop-color="rgb(232,238,247)" offset="0%"/>
        <stop stop-opacity="1" stop-color="rgb(183,201,227)" offset="100%"/>
      </linearGradient>
      <linearGradient x1="1387.9113" gradientUnits="userSpaceOnUse" x2="1391.5637" y1="73.2087" y2="76.5383" id="linearGradient15" spreadMethod="pad">
        <stop stop-opacity="1" stop-color="rgb(232,238,247)" offset="0%"/>
        <stop stop-opacity="1" stop-color="rgb(183,201,227)" offset="100%"/>
      </linearGradient>
      <clipPath clipPathUnits="userSpaceOnUse" id="clipPath1">
        <path d="M0 0 L637 0 L637 764 L0 764 L0 0 Z"/>
      </clipPath>
      <clipPath clipPathUnits="userSpaceOnUse" id="clipPath2">
        <path d="M770 -150 L1407 -150 L1407 614 L770 614 L770 -150 Z"/>
      </clipPath>
      <clipPath clipPathUnits="userSpaceOnUse" id="clipPath3">
        <path d="M-524.5593 -155.2087 L112.4408 -155.2087 L112.4408 608.7913 L-524.5593 608.7913 L-524.5593 -155.2087 Z"/>
      </clipPath>
      <clipPath clipPathUnits="userSpaceOnUse" id="clipPath4">
        <path d="M-0.356 -83.3116 L386.0705 -83.3116 L386.0705 380.1576 L-0.356 380.1576 L-0.356 -83.3116 Z"/>
      </clipPath>
      <clipPath clipPathUnits="userSpaceOnUse" id="clipPath5">
        <path d="M-342.6344 -188.4363 L294.3656 -188.4363 L294.3656 575.5637 L-342.6344 575.5637 L-342.6344 -188.4363 Z"/>
      </clipPath>
      <clipPath clipPathUnits="userSpaceOnUse" id="clipPath6">
        <path d="M-396.1616 -503.6699 L240.8384 -503.6699 L240.8384 260.3301 L-396.1616 260.3301 L-396.1616 -503.6699 Z"/>
      </clipPath>
      <clipPath clipPathUnits="userSpaceOnUse" id="clipPath7">
        <path d="M-1.1154 -288.0283 L342.194 -288.0283 L342.194 123.7275 L-1.1154 123.7275 L-1.1154 -288.0283 Z"/>
      </clipPath>
      <clipPath clipPathUnits="userSpaceOnUse" id="clipPath8">
        <path d="M-396.1616 -587.6002 L240.8384 -587.6002 L240.8384 176.3998 L-396.1616 176.3998 L-396.1616 -587.6002 Z"/>
      </clipPath>
      <clipPath clipPathUnits="userSpaceOnUse" id="clipPath9">
        <path d="M0.8763 -121.7947 L341.3189 -121.7947 L341.3189 286.5226 L0.8763 286.5226 L0.8763 -121.7947 Z"/>
      </clipPath>
    </defs>
    <g fill="white" transform="translate(-770,150)" stroke="white">
      <rect x="770" width="637" height="764" y="-150" clip-path="url(#clipPath2)" stroke="none"/>
    </g>
    <g transform="matrix(1,0,0,1,524.5592,155.2087)" image-rendering="optimizeQuality">
      <image x="0" y="0" clip-path="url(#clipPath3)" width="110" xlink:href="data:image/png;base64,iVBORw0KGgoAAAANSUhEUgAAAG4AAAAzCAYAAAB2Sz3SAAACQklEQVR42u2b4W7D&#10;IAyEgfT933h4mrRInmMSE0jart9J0f5cRsZhc/YgJQAAAAAAAEaRL3hfgmN8Ok9z&#10;pXfiHwOCZecjZYcLry1cVhy5SjgtWjEfWX8H1oMX54+B93cexTxThdOrY/24xQz+&#10;8/PLeQ/ellfUPK6C1ah4j5OpUYtXGmlC4B3y1keLFtr3lqBoxaSA7GzEdtW0cj68&#10;7VbjpcyhiLOiJScfH+XyCq/J0xHY5SwfgfTYCunacE/2A+BteeKkzq6yIBJxerO1&#10;G6gEbK8E7fGn8bTI3fX0EkyTnnCV/sUw5OyLD+buJbtYw+bEpsSuIhGEBbM1XXLc&#10;alg4MVY2IdolotnSQBr7ZHfE1Z0IBPMFTBGzUoIbaD3TTwND+9ywcETbfQ5zWufk&#10;tOsBXYLVXvGWgFi6cwLuKQXqqHBr8e3ZVaLuCfVbJFW2rCodkxdA6VgVmem6tSSY&#10;Yk5Ii9cKdlnnhBru+iijc/IP0iSdkzd2mFPMCdF2TyFO5+TNBLu8c0JJcE8Rftg5&#10;6T3lpR0PUTc36rqy2ZnOCfvc9UW3jEacHSDqgLixc8zLzjPteF5yCsKjmoObODGe&#10;Pbeq97c8EnH2zIn9r0B2RGy5ogJvw1tFW5RwNU26raOtqg1n705BVU+C18Wbej9O&#10;NzzzTn4uaqV5R6rhbfuP9p2ua1aR2zp7q2DvAp/sOCd4fmablipbJqV1aSE5q0bg&#10;NXk2RYbLrbOdkHzgniTosj6dF81s04Tb+x0Cr4sHAAAAAADAk/ANYGgdlDtt4SIA&#10;AAAASUVORK5CYII=" height="51" preserveAspectRatio="none"/>
    </g>
    <g stroke-dasharray="4,3,0,3" stroke-miterlimit="1.45" transform="matrix(1,0,0,1,-770,150)" stroke-linecap="round">
      <rect x="1302.5592" y="13.2087" clip-path="url(#clipPath2)" fill="none" width="89.0045" rx="4" ry="4" height="30"/>
      <text x="1308.5684" stroke-linecap="butt" y="34.3806" clip-path="url(#clipPath2)" font-family="sans-serif" stroke-dasharray="none" stroke="none" xml:space="preserve">Datenmodell</text>
    </g>
    <g transform="matrix(1.6484,0,0,1.6484,0.5868,137.3339)" image-rendering="optimizeQuality">
      <image x="0" y="0" clip-path="url(#clipPath4)" width="276" xlink:href="data:image/png;base64,iVBORw0KGgoAAAANSUhEUgAAARQAAABBCAYAAAAQRFuJAAADn0lEQVR42u2di24j&#10;IQxFIcn/f3JcrbSRRiMMNo95+Rwp2qxLmXBpb20gk5QAAAAAAAAAAAAAAAAAACAw&#10;eXF7ALg34mn8cRpJrnzdc+Grtb+q2Qtao/Vg+zTxGmK9YKvN9rHvOCsXvEu8JvzZ&#10;cbRG6yvMwS8mLVP5OMzktXGvrYtlg9tlo4llp+nlwbjsjDIVxpUd7bX+S5NV679X&#10;u7tpPTI3R2ktha9fXesVc/OvzbeVqbwNhvLaPCwZjTRe9Mr2M+LpoPbWvy5HaXeG&#10;1nITrc+em7O1ztayx2IoWem0lP60aq/V7XviZz231qZHaYfWz9I6TdBL+73vXkMp&#10;ZSffzQMAnsk+mfiVPDJS8uxdSqyLMwDwOJq/8x9nR1uXAoAY5mE+f/ZxdoyRAMQr&#10;fbbPqx7w6nQsjAUglpmYspVXZ+ccwQeIVfaYkgmroWAgAJjKlEVZ7fQhAMTNVLoN&#10;hbUTAJhmKAAQF9fR+55dHg61AcQxE0usy1Cy4lgA8EzY5QGAZabSrEwshsL5EwBM&#10;xbTM8TJ2ZnYoAIiL982BmApAHEr3Qqp6QCtD0W4Eg6kAgNtQsvJ/1lIAwG0o+9QH&#10;MwGIg3vb2PNent9zyh2AmKYyZduYBVmAuLiOjVhLHowEILapmJY6PLs83KAaIGZ2&#10;Ys5SPLs8LMwCwJSSh+P3APEQpVIZMhQMBABTMS11eHd5ACCuqUwredg6BoiJ9vnm&#10;Q4ZiTnkA4FFmktLEXR4AADPeW0By+0eAOCzb5cFEADAVdnkA4HolD6YCEBPXp13w&#10;Xh4A8JjJ9F0e1lMAoMjbYB75v/FgJABxs5RS1dKVofCJgQBxce3yWDIUt0sBwCMy&#10;E3cC4flcntLxWykYjijp0uq49nquEPeOLVf+UqD1XK1XafEErffGIqOGIsaMpXQj&#10;61IbqbQfjdfqvtVxbcze9rP7Qevz5+buWpfGLsnZccmhcsVR94JocTFcc6S9Jd7S&#10;wjOGFfGRsZ2ltVfTq2h9l7kZ/fnVqo3aNUpm922tpWTHC31V0h9vStfzw/b0+Kr0&#10;HK2ZgxlamM6hWdZQJPF5PADRKO3uNHd63sbOtUVCKVxce1Ga47UG42lvibdEsY5h&#10;1b9pUvxIrb2aXkXro+bmTK0lld8tLIb22ve6jKKnba7UaaXB5ofFtTF728+Oo/X5&#10;c3P3OXBVJu80n5Z7p0XxI67RG5dBjbTJRet5Gd1I9iEL5+AsTVniAAAAAAAAAAAA&#10;ALg6f3qbfjTTSX9UAAAAAElFTkSuQmCC" height="65" preserveAspectRatio="none"/>
    </g>
    <g stroke-dasharray="4,3,0,3" stroke-miterlimit="1.45" transform="matrix(1,0,0,1,-770,150)" stroke-linecap="round">
      <rect x="785.0712" y="1.8183" clip-path="url(#clipPath2)" fill="none" width="421.6149" rx="4" ry="4" height="74.618"/>
    </g>
    <g transform="matrix(1,0,0,1,342.6344,188.4363)" image-rendering="optimizeQuality">
      <image x="0" y="0" clip-path="url(#clipPath5)" width="107" xlink:href="data:image/png;base64,iVBORw0KGgoAAAANSUhEUgAAAGsAAAAzCAYAAACQYvaWAAACNElEQVR42u1bi2rD&#10;MAy0nPz/H9cqg2R4suxItjoKvoNQ1h5Z8Fmvq5sSAAAAAAAAsC/oH+7H4Jl5Q5yB&#10;4pLyOYP3yyGFx58Qi5SHY4WTBadcPAav4RWvYKdDqHxdqXqg+h/l6qLrs5/Xl7jf&#10;zjwZbS7BTodQhxCr3h1yB5GSKljcbzdeVt4nT2QdBrEOcWURWdzJzdyJwB15snxo&#10;vLDIIhHuWirUQlrL4bvyNMEsDcqUWLI4yjSYlL97u2dnHj102DwjFimi8SCMrTtl&#10;d56WrUzdobUblGmvDB7MAvD+dpL3Gr8ih2KeHeiAbnmhwZDdqGsVqMx2MUCM5Xca&#10;RaprVoFYYXBt/sOhPCOyPhJJWuaaHootrSmwJpopCI6FGwPx0ZVWGgzqDHGE9Q6t&#10;W8sNRi1OViwVIC7Kwl332sEgCLYsUE6tM1TSgt1Eqf3OBjUrpl7d32jc6/parVlT&#10;wxvgdjAoysFwF0IADgYcDDgYcDAAOBhwMOBgwMEAnP0AHIwvdzDqMxhwML54IK7X&#10;9c5Yy2lQs0me6hYbB7/deHL9cmpP8C6JxQbxnvj4hYkuqKtRszgYMpeyskOeBue8&#10;OU82ZpTa08yP5eU0RFUR4nCnSNaHFcugmO7I046YFyFkiRDrvlnvVGnd2meRe1kp&#10;qjvy5GaX0WjyXK0OBhuHZu1sIYHXPXfJ1hTo7QbljNXrYkrST+6Ct2iGz9pG9ND1&#10;WDqfnXm8sujRpiR4zt9eAQAAAAAAAMAYb3JUEng0B4qhAAAAAElFTkSuQmCC" height="51" preserveAspectRatio="none"/>
    </g>
    <g stroke-dasharray="4,3,0,3" stroke-miterlimit="1.45" transform="matrix(1,0,0,1,-770,150)" stroke-linecap="round">
      <rect x="1120.6344" y="46.4363" clip-path="url(#clipPath2)" fill="none" width="86.0517" rx="4" ry="4" height="30"/>
    </g>
    <g font-style="italic" stroke-miterlimit="1.45" font-family="sans-serif" transform="matrix(1,0,0,1,-770,150)" stroke-linecap="butt">
      <text x="1143.9786" xml:space="preserve" y="67.6082" clip-path="url(#clipPath2)" stroke="none">Modell</text>
    </g>
    <g transform="matrix(1,0,0,1,396.1616,503.6699)" image-rendering="optimizeQuality">
      <image x="0" y="0" clip-path="url(#clipPath6)" width="110" xlink:href="data:image/png;base64,iVBORw0KGgoAAAANSUhEUgAAAG4AAAAzCAYAAAB2Sz3SAAACOUlEQVR42u1b2W7D&#10;MAyznP7/H88qBiyApki2fHXNSgLBXlgkC0MdRJISAAAAAAAAAMyCNvyeg+f4dJ7k&#10;cu+Nf0wIRsZFcoULni8cCQ7vEk6KltVFlp8Ty5Nn458B7/d9ZHUsFU4+HefFHerk&#10;33+/jN+Bd+VlcR9PwUpUvMdgaZTiZadMMHhN3nlI0UJ97wiKllUJIKMR66fGq/ng&#10;XVuNVTKnHKdFS0Y9btXyAp7Lkw7smiwfgfLoWbo405O+APCuPDZKZ9daEHEcKeG4&#10;ctHs7C8EnonirA9NHMEyqYVjYXVgHDz6w56pckXSAsRSqOnhRLor9+wZQJdgeqdL&#10;xrQaFo7VEOKNv8CcaHo1YKdPDjuuNkkB6wQMtaQcbKAFbnt5n5sSTo//cNzeCTOc&#10;nBydFgb2OoyjAkaE0zllguO2rwLNltSTnOiJB+KtX8SXRF7k7BjocW+APGhnYP9K&#10;MJWcWHYG1gu2NTkh7HJbXYbk5B+USSQnN9/rhoVDcvLalQDJyU0dhuTkxgIiOblZ&#10;mexau5CcvOfSzbOOs+wc6Xv4YqfNI+NY9npezbpUabDekwWeX9FSur4qMiScfhVP&#10;rwVkuM+biDJ4F94p2iGEC+/JkeSkKKG4MnEWcSTwunhLv4+TgSdV6nMWT5r1SjV4&#10;1/yRjGAj/Ppj5GudVp/zPm7gyjADnl3ZlpVKq+dR8j9aSMZTw+C5PDKixJDjRqMs&#10;akxPHJyyPp0XrWzLhGvlbeDFeQAAAAAAAADwR3gCofIelZSUJEAAAAAASUVORK5C&#10;YII=" height="51" preserveAspectRatio="none"/>
    </g>
    <g stroke-dasharray="4,3,0,3" stroke-miterlimit="1.45" transform="matrix(1,0,0,1,-770,150)" stroke-linecap="round">
      <rect x="1174.1616" y="361.6699" clip-path="url(#clipPath2)" fill="none" width="89.0045" rx="4" ry="4" height="30"/>
    </g>
    <g font-style="italic" stroke-miterlimit="1.45" font-family="sans-serif" transform="matrix(1,0,0,1,-770,150)" stroke-linecap="butt">
      <text x="1189.0183" xml:space="preserve" y="382.8417" clip-path="url(#clipPath2)" stroke="none">Controller</text>
    </g>
    <g transform="matrix(1.8555,0,0,1.8555,2.0697,534.4275)" image-rendering="optimizeQuality">
      <image x="0" y="0" clip-path="url(#clipPath7)" width="276" xlink:href="data:image/png;base64,iVBORw0KGgoAAAANSUhEUgAAARQAAAA8CAYAAACn+EWWAAACh0lEQVR42u3d2a6j&#10;MAwAUML0/z95Mq8IQbGT0GE5R7rSVUUhIcS1Q5dpAgAAAAAAAODFyo+fB9xLzWz8&#10;aQwkAgoILM0BZRlIlv/XjgaWjYaWjQ5EH9vbZ7atJfj8lrZuPV4D5yXT1lHnunUM&#10;ett6dL5brpej54++Xo6y+pHXS3bO9fSrZjr5bZvyJTupg7OWzISu0/VkLtzIq0IJ&#10;btcyBtGJ+4Qx6HllHjUG2UBZB7RrxDysq79dfwI7njeCSu9kKoNPTk2+uo58xRuZ&#10;Tra2dUQ2MroPR8fvzZyudr1Mjdv2lh+l47xG21oyUSiSncwbBz6MVkoeJY+S59Yl&#10;z3p54+/RvI8ElHm187rYOfBMyzk/r+Z9bS151oux4VoKeExgCWeikYCy3qFgAmya&#10;E9sKJsBXmTe2jbwVB9yn5AmXPXPjAQCGBBSA7pIHeJ8aLXeyGUqN7hRQ8gBsiXzs&#10;Jh1QfHUBvDOYTNG5L0MBlDzAT6Q+DGxRFojOfRkK0C28biqgAJFgErrT4y4PMIwM&#10;BfgvAcViLLzPaW+9F1gAJQ/Q7LR3ylqUBboDShFMgFEBJbUoAwgomaAC0BVQAIYF&#10;FGsngAwF6ObDgcAwvr4AuG7J4y4PIEMBmpXgY+mA4i4PvDeYnPIzGgILvNPyC6qH&#10;/Fh6FVRAYDna4BPYQbqOAh5V8oSCSSSg7GUnpbOh9UfP7z3WiEGpF71Y6k36dafx&#10;ftIYlIPSpyuglI2OlEDnSrBcKjtRsOw8trffM441JY4VaesUbP/ZbZ0an98yBq39&#10;Konz1duvq45B7zzobeuUCVyf4HbehwLWTprSmm/bjlg7UfJIt5U89xqD8K+GloZO&#10;ADIUAAAAAAAAHuMfJd36g51Qc30AAAAASUVORK5CYII=" height="60" preserveAspectRatio="none"/>
    </g>
    <g stroke-dasharray="4,3,0,3" stroke-miterlimit="1.45" transform="matrix(1,0,0,1,-770,150)" stroke-linecap="round">
      <rect x="788.6243" y="400.9822" clip-path="url(#clipPath2)" fill="none" width="474.5417" rx="4" ry="4" height="74.618"/>
    </g>
    <g transform="matrix(1,0,0,1,396.1616,587.6002)" image-rendering="optimizeQuality">
      <image x="0" y="0" clip-path="url(#clipPath8)" width="110" xlink:href="data:image/png;base64,iVBORw0KGgoAAAANSUhEUgAAAG4AAAAzCAYAAAB2Sz3SAAACL0lEQVR42u2bC2vD&#10;MAyEbSf//ydHY7BQodiO/OqW9TswhfZCQ856nIhDAAAAAAAAYBRxwfUCr5knrQ9+&#10;HxAsZm6ydnPw6lxpEXEfEO17JbNr9NJ8eHleVKLlOFOEi+YPk1rnDR4/SwNenXc+&#10;15PjEm/viDJ7c8mEuP60IsN78ezz07/dpszdKVrKFFwb2rVwP3ddhFese8lcMxRx&#10;MRPSOcFKwuV2I7xXaoyK29RZRkd63JR4YnJxqAha6kDhXTNZzNRDGY24aIQTtWOC&#10;w6+I09d8Gk9HXbOf3pxp0gonFeGAH9J7YUtXOWPSAnxla7g50dGVWnwGaBJMN4C6&#10;FEmPcFJoaw+EmyqanUJJpU52RZz9DqwR0FWSkrOAHkTb2+vckHA1ow3md5juQfPW&#10;GMJgbYSJV0CPcKng8ME6KzB1cmI7HsSbb8Tdz3R3imaFQ7RfRuoMZ7DeEgxNTnLh&#10;DOYLtnRyEvFyS6OMyck/SJNMTh7u67qFY3LyXkvA5OShEcbk5MECMjl5WJpssl1M&#10;Tv6m6ZYw4YVYG86eusdJnHtezKwps8q70I2VAuvhfjqv9Lq6621mz+TEFksp7JiS&#10;YQ+hfILlk3knZ1PCuX2yZ3JyGKGOQsdp+VbgDd6Fl5tRThMuqPAt5edkdpa1DQne&#10;Zf4YM4ONqces9J96TuzkuiJ4ed7R6t96usrS7vLsmgPehSeZFOm2W72jrJI1uDvB&#10;Aq+vg58mHP5sHg8AAAAAAIBfwhdomXYq2nu9NAAAAABJRU5ErkJggg==" height="51" preserveAspectRatio="none"/>
    </g>
    <g stroke-dasharray="4,3,0,3" stroke-miterlimit="1.45" transform="matrix(1,0,0,1,-770,150)" stroke-linecap="round">
      <rect x="1174.1616" y="445.6002" clip-path="url(#clipPath2)" fill="none" width="89.0045" rx="4" ry="4" height="30"/>
    </g>
    <g font-style="italic" stroke-miterlimit="1.45" font-family="sans-serif" transform="matrix(1,0,0,1,-770,150)" stroke-linecap="butt">
      <text x="1204.2937" xml:space="preserve" y="466.772" clip-path="url(#clipPath2)" stroke="none">View</text>
    </g>
    <g transform="matrix(1.8711,0,0,1.8711,-1.6397,227.8893)" image-rendering="optimizeQuality">
      <image x="0" y="0" clip-path="url(#clipPath9)" width="275" xlink:href="data:image/png;base64,iVBORw0KGgoAAAANSUhEUgAAARMAAACzCAYAAACqwvjiAAAFUklEQVR42u3d0XKb&#10;MBAFUOT4/z859KWd8VAMK2nBGJ0z02ma2rKInZvVQuRpAgAAAAAAAODmysn3A77H&#10;XHPjZ0OACBIQLE1h8hoiZeX/oum1vG15M9FSkYprj7827rsx380/MtdSmeC9x791&#10;rHPy8U8VX9NPPle1x79225rX71Gv1dbnPzrXjO+13duV4MQeL2EybzxIbdVS8wX6&#10;9Lil8wmumedR4+69UMoHjr+2nL7aa+3bWhotX+t/H89b9/8JTOBfmDyCS53IT4tS&#10;eSAtP4GiY151rns/WY4Ys/X49yqLzLlOSc9VaXz+so6/5vWaPdfo90XVmCXw/8sg&#10;WSaUZY5ljmXOvZY579oZm9VJS5j8/h3sV08Kbr8sKtEweVY+wO6AwJgeFQHy+1KV&#10;CBK4t+o+zKNhYGDc5U53mACkVCauegW6w6QIFRjW/ObjpjBpuaYEUJmEEgoYQ3hl&#10;0tKAFSowXpDsBsqjYWB9EyClMgHGMNesTIQJcHpl4owOYJkDXCdMNF6B1MpEqACW&#10;OUCV1MvpAVQmQJdDL6cHaA4TTVegO0zsZwLjSt/PJDQYcNtASXmvYWBcy42k/aIf&#10;cCxhApwWJhqwQEqYaMACacscIQKkhMlroAgWoCtMbCgNpIQJgDABrhcmeiZAV5iE&#10;rs8HhMme5TX6AF3LHIECpIQJwH9sQQBsCf86zbNhUE1YGIf9TIBzuZweODVMBAiM&#10;KXVDaUECpFQmGq5A2jJHoMCY0t8e1FIHSKlMAIQJ0Cz1bM7uIMBtpfdMgLGDZDdQ&#10;hAmQQpgAwgQ41Bz8nDABqgIl5WzO60DO7MA4nM0BzmU/E+D0MAHGc0jPBCAlTDRg&#10;AZUJ0OSQszkar0BqZSJUgOYwESAwJvuZAClcAQtcc5kDkBImeiaAygS4TphowAJp&#10;lYnL6QHLHOA6YWI/E0BlAggT4GZhogELqEwAYQLcLEyczQFUJkCTQ9/RDyClMhEq&#10;MA6bIwHXrUw0YIHuMBEgMCZvDwpcszLRdIUxacAC16xM9EyA7jAJlzmAMAFY87r1&#10;SPfZnHmylwmMbndVojIBoiHibA5wPGdzgFPDBBhT+HL6Z8OAACmViWCBcWjAAtet&#10;TOxnAnSHiQCBMaXvZ6JPAqQtc8LX6AO3oQELXLcyeW3A6qEATWEiPGBsu62Np68R&#10;EAyR9LM5mq+AygSosuyRzr2VCcCUscyxqTRgmQM08/agwDWXOc7gwLhCF6qqTIBo&#10;iGyGiitggVOXOcB45uDnqsJEzwQEStrZHPuZwHjsZwKcy34mwKlhIjyAtMoEGM+h&#10;bw+q+QqoTIAqzuYA161MvD0o8Fa0ZyJAYEzeHhS47jJnFiwwpPT9TCx1YMwgCWWA&#10;DaWB05Y5ggTGldqAdfUrkFKZCBEYlytggWtWJgApYaLxCqhMgOPZzwRQmQDCBLi+&#10;EvxcdZjYzwTGUvWOfvYzAaKBYj8T4Hj2MwEiK5PU/UyAMYNk7eOuMNGABVQmQJPX&#10;9kZKAxYQKJt+KtdMwBjK4s+uyHUm88pgAgbuHybLf6e8cbkggTHDJPz9/mx4gFmo&#10;wMe+wecPPNYpPZN366lSMVYJjlsOuH/t/KeOx++9f+/xT5Vj1sy/d67TAc/Vt7/W&#10;SrBSOOK1trxt6IzOT8ckluaNSbx+ft6ZcFkZt1Q8VmTMs+f/7v5T0vHvjbk217Jx&#10;25779z5X05e+1t7dv2f+LXPKPP75zd/d/Y+t9JqD5VgJ3rYEv0C996+d/1RxTNFv&#10;kLOOf+22W7ermX/vXLOP/w6vtRIIg6Nea1PgB01zZfKtPy1UJioTlUnb/P0OHgAA&#10;AAAAwK38AYQOqcFs/aUXAAAAAElFTkSuQmCC" height="179" preserveAspectRatio="none"/>
    </g>
    <g stroke-dasharray="4,3,0,3" stroke-miterlimit="1.45" transform="matrix(1,0,0,1,-770,150)" stroke-linecap="round">
      <rect x="785.0712" y="94.6002" clip-path="url(#clipPath2)" fill="none" width="478.0949" rx="4" ry="4" height="297.0696"/>
    </g>
    <g fill="url(#linearGradient1)" stroke-miterlimit="1.45" transform="matrix(1,0,0,1,-770,150)" stroke-linecap="butt" stroke="url(#linearGradient1)">
      <path d="M1006.4023 575.1485 C996.4023 561.1485 1006.4023 548.6485 1022.8024 557.6485 C1022.8024 548.6485 1050.0023 548.6485 1050.0023 557.6485 C1066.4023 548.6485 1076.4023 561.1485 1066.4023 572.1485 C1076.4023 586.1485 1066.4023 598.6485 1054.0023 589.6485 C1050.0023 598.6485 1022.8024 598.6485 1026.8024 589.6485 C1006.4023 598.6485 996.4023 586.1485 1006.4023 575.1485 Z" clip-path="url(#clipPath2)" stroke="none"/>
      <path fill="none" d="M1006.4023 575.1485 C996.4023 561.1485 1006.4023 548.6485 1022.8024 557.6485 C1022.8024 548.6485 1050.0023 548.6485 1050.0023 557.6485 C1066.4023 548.6485 1076.4023 561.1485 1066.4023 572.1485 C1076.4023 586.1485 1066.4023 598.6485 1054.0023 589.6485 C1050.0023 598.6485 1022.8024 598.6485 1026.8024 589.6485 C1006.4023 598.6485 996.4023 586.1485 1006.4023 575.1485 Z" clip-path="url(#clipPath2)" stroke="black"/>
      <text x="1011.3506" y="577.8047" clip-path="url(#clipPath2)" fill="black" font-family="sans-serif" stroke="none" xml:space="preserve">Network</text>
    </g>
    <g fill="url(#linearGradient2)" stroke-miterlimit="1.45" transform="matrix(1,0,0,1,-770,150)" stroke-linecap="butt" stroke="url(#linearGradient2)">
      <path d="M982.5784 -126.6338 C985.8078 -134.6338 1086.9969 -134.6338 1090.2263 -126.6338 L1090.2263 -102.6338 C1086.9969 -94.6338 985.8078 -94.6338 982.5784 -102.6338 Z" clip-path="url(#clipPath2)" stroke="none"/>
      <path fill="none" d="M982.5784 -126.6338 C985.8078 -134.6338 1086.9969 -134.6338 1090.2263 -126.6338 L1090.2263 -102.6338 C1086.9969 -94.6338 985.8078 -94.6338 982.5784 -102.6338 Z" clip-path="url(#clipPath2)" stroke="black"/>
      <path fill="none" d="M1090.2263 -126.6338 C1086.9969 -118.6338 985.8078 -118.6338 982.5784 -126.6338" clip-path="url(#clipPath2)" stroke="black"/>
      <text x="999.1455" y="-110.4776" clip-path="url(#clipPath2)" fill="black" font-family="sans-serif" stroke="none" xml:space="preserve">Kartendaten</text>
    </g>
    <g fill="url(#linearGradient3)" stroke-miterlimit="1.45" transform="matrix(1,0,0,1,-770,150)" stroke-linecap="butt" stroke="url(#linearGradient3)">
      <path d="M804.6152 27.1273 C807.572 19.1273 900.2184 19.1273 903.1752 27.1273 L903.1752 51.1273 C900.2184 59.1273 807.572 59.1273 804.6152 51.1273 Z" clip-path="url(#clipPath2)" stroke="none"/>
      <path fill="none" d="M804.6152 27.1273 C807.572 19.1273 900.2184 19.1273 903.1752 27.1273 L903.1752 51.1273 C900.2184 59.1273 807.572 59.1273 804.6152 51.1273 Z" clip-path="url(#clipPath2)" stroke="black"/>
      <path fill="none" d="M903.1752 27.1273 C900.2184 35.1273 807.572 35.1273 804.6152 27.1273" clip-path="url(#clipPath2)" stroke="black"/>
      <text x="851.988" y="36.2992" clip-path="url(#clipPath2)" fill="black" font-family="sans-serif" stroke="none" xml:space="preserve"> </text>
      <text x="822.1608" y="50.2679" clip-path="url(#clipPath2)" fill="black" font-family="sans-serif" stroke="none" xml:space="preserve">Stylesheet</text>
    </g>
    <g fill="url(#linearGradient4)" stroke-miterlimit="1.45" transform="matrix(1,0,0,1,-770,150)" stroke-linecap="butt" stroke="url(#linearGradient4)">
      <path d="M982.5784 27.1273 C985.8078 19.1273 1086.9969 19.1273 1090.2263 27.1273 L1090.2263 51.1273 C1086.9969 59.1273 985.8078 59.1273 982.5784 51.1273 Z" clip-path="url(#clipPath2)" stroke="none"/>
      <path fill="none" d="M982.5784 27.1273 C985.8078 19.1273 1086.9969 19.1273 1090.2263 27.1273 L1090.2263 51.1273 C1086.9969 59.1273 985.8078 59.1273 982.5784 51.1273 Z" clip-path="url(#clipPath2)" stroke="black"/>
      <path fill="none" d="M1090.2263 27.1273 C1086.9969 35.1273 985.8078 35.1273 982.5784 27.1273" clip-path="url(#clipPath2)" stroke="black"/>
      <text x="990.6641" y="43.2836" clip-path="url(#clipPath2)" fill="black" font-family="sans-serif" stroke="none" xml:space="preserve">Zwischendaten</text>
    </g>
    <g fill="url(#linearGradient5)" stroke-miterlimit="1.45" transform="matrix(1,0,0,1,-770,150)" stroke-linecap="butt" stroke="url(#linearGradient5)">
      <path d="M996.4023 -64.6338 L1076.4023 -64.6338 L1076.4023 -24.6338 L996.4023 -24.6338 Z" clip-path="url(#clipPath2)" stroke="none"/>
      <path fill="none" d="M996.4023 -64.6338 L1076.4023 -64.6338 L1076.4023 -24.6338 L996.4023 -24.6338 Z" clip-path="url(#clipPath2)" stroke="black"/>
      <text x="1002.5469" y="-40.4776" clip-path="url(#clipPath2)" fill="black" font-family="sans-serif" stroke="none" xml:space="preserve">Aufbereiter</text>
    </g>
    <g fill="url(#linearGradient6)" stroke-miterlimit="1.45" transform="matrix(1,0,0,1,-770,150)" stroke-linecap="butt" stroke="url(#linearGradient6)">
      <path d="M996.4023 418.2912 L1076.4023 418.2912 L1076.4023 458.2912 L996.4023 458.2912 Z" clip-path="url(#clipPath2)" stroke="none"/>
      <path fill="none" d="M996.4023 418.2912 L1076.4023 418.2912 L1076.4023 458.2912 L996.4023 458.2912 Z" clip-path="url(#clipPath2)" stroke="black"/>
      <text x="1001.5361" y="442.4474" clip-path="url(#clipPath2)" fill="black" font-family="sans-serif" stroke="none" xml:space="preserve">Http-Server</text>
    </g>
    <g fill="url(#linearGradient7)" stroke-miterlimit="1.45" transform="matrix(1,0,0,1,-770,150)" stroke-linecap="butt" stroke="url(#linearGradient7)">
      <path d="M800.0712 113.575 L907.7192 113.575 L907.7192 153.575 L800.0712 153.575 Z" clip-path="url(#clipPath2)" stroke="none"/>
      <path fill="none" d="M800.0712 113.575 L907.7192 113.575 L907.7192 153.575 L800.0712 153.575 Z" clip-path="url(#clipPath2)" stroke="black"/>
      <text x="802.9245" y="137.7312" clip-path="url(#clipPath2)" fill="black" font-family="sans-serif" stroke="none" xml:space="preserve">Stylesheetparser</text>
    </g>
    <g fill="url(#linearGradient8)" stroke-miterlimit="1.45" transform="matrix(1,0,0,1,-770,150)" stroke-linecap="butt" stroke="url(#linearGradient8)">
      <path d="M982.5784 113.575 L1090.2263 113.575 L1090.2263 153.575 L982.5784 153.575 Z" clip-path="url(#clipPath2)" stroke="none"/>
      <path fill="none" d="M982.5784 113.575 L1090.2263 113.575 L1090.2263 153.575 L982.5784 153.575 Z" clip-path="url(#clipPath2)" stroke="black"/>
      <text x="989.5273" y="137.7312" clip-path="url(#clipPath2)" fill="black" font-family="sans-serif" stroke="none" xml:space="preserve">Regelanwender</text>
    </g>
    <g fill="url(#linearGradient9)" stroke-miterlimit="1.45" transform="matrix(1,0,0,1,-770,150)" stroke-linecap="butt" stroke="url(#linearGradient9)">
      <path d="M1176.3495 113.575 L1256.3495 113.575 L1256.3495 153.575 L1176.3495 153.575 Z" clip-path="url(#clipPath2)" stroke="none"/>
      <path fill="none" d="M1176.3495 113.575 L1256.3495 113.575 L1256.3495 153.575 L1176.3495 153.575 Z" clip-path="url(#clipPath2)" stroke="black"/>
      <text x="1188.5614" y="137.7312" clip-path="url(#clipPath2)" fill="black" font-family="sans-serif" stroke="none" xml:space="preserve">Renderer</text>
    </g>
    <g fill="url(#linearGradient10)" stroke-miterlimit="1.45" transform="matrix(1,0,0,1,-770,150)" stroke-linecap="butt" stroke="url(#linearGradient10)">
      <path d="M1176.3495 208.0227 L1256.3495 208.0227 L1256.3495 248.0227 L1176.3495 248.0227 Z" clip-path="url(#clipPath2)" stroke="none"/>
      <path fill="none" d="M1176.3495 208.0227 L1256.3495 208.0227 L1256.3495 248.0227 L1176.3495 248.0227 Z" clip-path="url(#clipPath2)" stroke="black"/>
      <text x="1197.6903" y="232.1789" clip-path="url(#clipPath2)" fill="black" font-family="sans-serif" stroke="none" xml:space="preserve">Cache</text>
    </g>
    <g fill="url(#linearGradient11)" stroke-miterlimit="1.45" transform="matrix(1,0,0,1,-770,150)" stroke-linecap="butt" stroke="url(#linearGradient11)">
      <path d="M996.4023 274.5827 L1076.4023 274.5827 L1076.4023 314.5827 L996.4023 314.5827 Z" clip-path="url(#clipPath2)" stroke="none"/>
      <path fill="none" d="M996.4023 274.5827 L1076.4023 274.5827 L1076.4023 314.5827 L996.4023 314.5827 Z" clip-path="url(#clipPath2)" stroke="black"/>
      <text x="1003.0977" y="298.739" clip-path="url(#clipPath2)" fill="black" font-family="sans-serif" stroke="none" xml:space="preserve">URL-parser</text>
    </g>
    <g fill="url(#linearGradient12)" stroke-miterlimit="1.45" transform="matrix(1,0,0,1,-770,150)" stroke-linecap="butt" stroke="url(#linearGradient12)">
      <path d="M1302.5592 -76.2 C1305.2294 -82.2 1388.8936 -82.2 1391.5637 -76.2 L1391.5637 -58.2 C1388.8936 -52.2 1305.2294 -52.2 1302.5592 -58.2 Z" clip-path="url(#clipPath2)" stroke="none"/>
      <path fill="none" d="M1302.5592 -76.2 C1305.2294 -82.2 1388.8936 -82.2 1391.5637 -76.2 L1391.5637 -58.2 C1388.8936 -52.2 1305.2294 -52.2 1302.5592 -58.2 Z" clip-path="url(#clipPath2)" stroke="black"/>
      <path fill="none" d="M1391.5637 -76.2 C1388.8936 -70.2 1305.2294 -70.2 1302.5592 -76.2" clip-path="url(#clipPath2)" stroke="black"/>
      <text x="1328.918" y="-63.0438" clip-path="url(#clipPath2)" fill="black" font-family="sans-serif" stroke="none" xml:space="preserve">Daten</text>
    </g>
    <g fill="url(#linearGradient13)" stroke-miterlimit="1.45" transform="matrix(1,0,0,1,-770,150)" stroke-linecap="butt" stroke="url(#linearGradient13)">
      <path d="M1302.5592 -34.4956 L1391.5637 -34.4956 L1391.5637 -4.4956 L1302.5592 -4.4956 Z" clip-path="url(#clipPath2)" stroke="none"/>
      <path fill="none" d="M1302.5592 -34.4956 L1391.5637 -34.4956 L1391.5637 -4.4956 L1302.5592 -4.4956 Z" clip-path="url(#clipPath2)" stroke="black"/>
      <text x="1325.2441" y="-15.3394" clip-path="url(#clipPath2)" fill="black" font-family="sans-serif" stroke="none" xml:space="preserve">Module</text>
    </g>
    <g fill="url(#linearGradient14)" stroke-miterlimit="1.45" transform="matrix(1,0,0,1,-770,150)" stroke-linecap="butt" stroke="url(#linearGradient14)">
      <path d="M1302.5592 73.2087 L1306.2118 73.2087 L1306.2118 76.5383 L1302.5592 76.5383 Z" clip-path="url(#clipPath2)" stroke="none"/>
      <path fill="none" d="M1302.5592 73.2087 L1306.2118 73.2087 L1306.2118 76.5383 L1302.5592 76.5383 Z" clip-path="url(#clipPath2)" stroke="black"/>
    </g>
    <g fill="url(#linearGradient15)" stroke-miterlimit="1.45" transform="matrix(1,0,0,1,-770,150)" stroke-linecap="butt" stroke="url(#linearGradient15)">
      <path d="M1387.9113 73.2087 L1391.5637 73.2087 L1391.5637 76.5383 L1387.9113 76.5383 Z" clip-path="url(#clipPath2)" stroke="none"/>
      <path fill="none" d="M1387.9113 73.2087 L1391.5637 73.2087 L1391.5637 76.5383 L1387.9113 76.5383 Z" clip-path="url(#clipPath2)" stroke="black"/>
    </g>
    <g stroke-linecap="butt" transform="matrix(1,0,0,1,-770,150)" stroke-miterlimit="1.45">
      <path fill="none" d="M1036.4023 -96.6211 L1036.4023 -72.6114" clip-path="url(#clipPath2)"/>
    </g>
    <g stroke-linecap="butt" transform="matrix(1,0,0,1,-770,150)" stroke-miterlimit="1.45">
      <path d="M1036.4023 -64.6114 L1041.4023 -76.6114 L1036.4023 -73.6114 L1031.4023 -76.6114 Z" clip-path="url(#clipPath2)" stroke="none"/>
      <path fill="none" d="M1036.4023 -24.6342 L1036.4023 13.101" clip-path="url(#clipPath2)"/>
      <path d="M1036.4023 21.101 L1041.4023 9.101 L1036.4023 12.101 L1031.4023 9.101 Z" clip-path="url(#clipPath2)" stroke="none"/>
      <path fill="none" d="M1022.0314 557.2245 L1021.5977 556.7288 L1011.0228 539.8091 L1004.678 522.8895 L1003.0917 514.4297 L1002.563 505.9698 L1003.0917 497.51 L1004.678 489.0502 L1011.0228 472.1305 L1015.4368 465.0681" clip-path="url(#clipPath2)"/>
      <path d="M1019.6768 458.2841 L1009.0768 465.8101 L1014.9068 465.9161 L1017.5568 471.1101 Z" clip-path="url(#clipPath2)" stroke="none"/>
      <text x="947.3577" xml:space="preserve" y="514.1236" font-family="sans-serif" clip-path="url(#clipPath2)" stroke="none">Anfrage</text>
      <path fill="none" d="M1053.1278 458.2841 L1061.7819 472.1305 L1068.1267 489.0502 L1069.713 497.51 L1070.2417 505.9698 L1069.713 514.4297 L1068.1267 522.8895 L1061.7819 539.8091 L1055.1021 550.4968 L1055.0363 550.572" clip-path="url(#clipPath2)"/>
      <path d="M1049.7706 556.5947 L1061.4332 550.8516 L1055.6945 549.8192 L1053.9049 544.2696 Z" clip-path="url(#clipPath2)" stroke="none"/>
      <text x="1081.5287" xml:space="preserve" y="514.4916" font-family="sans-serif" clip-path="url(#clipPath2)" stroke="none">Kachel</text>
      <path fill="none" d="M853.8952 57.1591 L853.8952 105.5382" clip-path="url(#clipPath2)"/>
      <path d="M853.8952 113.5382 L858.8952 101.5382 L853.8952 104.5382 L848.8952 101.5382 Z" clip-path="url(#clipPath2)" stroke="none"/>
      <path fill="none" d="M907.676 133.575 L974.5673 133.575" clip-path="url(#clipPath2)"/>
      <path d="M982.5673 133.575 L970.5673 128.575 L973.5673 133.575 L970.5673 138.575 Z" clip-path="url(#clipPath2)" stroke="none"/>
      <text x="915.8249" xml:space="preserve" y="128.3073" font-family="sans-serif" clip-path="url(#clipPath2)" stroke="none">Stilregeln</text>
      <path fill="none" d="M1036.4023 57.1591 L1036.4023 105.5382" clip-path="url(#clipPath2)"/>
      <path d="M1036.4023 113.5382 L1041.4023 101.5382 L1036.4023 104.5382 L1031.4023 101.5382 Z" clip-path="url(#clipPath2)" stroke="none"/>
      <path fill="none" d="M1090.2195 133.575 L1168.3488 133.575" clip-path="url(#clipPath2)"/>
      <path d="M1176.3488 133.575 L1164.3488 128.575 L1167.3488 133.575 L1164.3488 138.575 Z" clip-path="url(#clipPath2)" stroke="none"/>
      <text x="1093.2372" xml:space="preserve" y="130.7469" font-family="sans-serif" clip-path="url(#clipPath2)" stroke="none">Zu rendernde</text>
      <text x="1116.1444" xml:space="preserve" y="144.7156" font-family="sans-serif" clip-path="url(#clipPath2)" stroke="none">Daten</text>
      <path fill="none" d="M1216.3495 153.5437 L1216.3495 200.0574" clip-path="url(#clipPath2)"/>
      <path d="M1216.3495 208.0574 L1221.3495 196.0574 L1216.3495 199.0574 L1211.3495 196.0574 Z" clip-path="url(#clipPath2)" stroke="none"/>
      <text x="1166.2782" xml:space="preserve" y="184.9551" font-family="sans-serif" clip-path="url(#clipPath2)" stroke="none">Kachel</text>
      <path fill="none" d="M1216.3495 247.9941 L1216.3495 348.1444 L1057.3967 348.1444 L1057.3967 410.2756" clip-path="url(#clipPath2)"/>
      <path d="M1057.3967 418.2756 L1062.3967 406.2756 L1057.3967 409.2756 L1052.3967 406.2756 Z" clip-path="url(#clipPath2)" stroke="none"/>
      <text x="1138.6418" xml:space="preserve" y="340.976" font-family="sans-serif" clip-path="url(#clipPath2)" stroke="none">Kachel</text>
      <path fill="none" d="M1036.4023 418.2576 L1036.4023 322.6013" clip-path="url(#clipPath2)"/>
      <path d="M1036.4023 314.6013 L1031.4023 326.6013 L1036.4023 323.6013 L1041.4023 326.6013 Z" clip-path="url(#clipPath2)" stroke="none"/>
      <text x="1009.955" xml:space="preserve" y="355.2332" font-family="sans-serif" clip-path="url(#clipPath2)" stroke="none">URL</text>
      <path fill="none" d="M1008.4023 274.5638 L1008.4023 228.3364 L853.8952 228.3364 L853.8952 161.61" clip-path="url(#clipPath2)"/>
      <path d="M853.8952 153.61 L848.8952 165.61 L853.8952 162.61 L858.8952 165.61 Z" clip-path="url(#clipPath2)" stroke="none"/>
      <text x="882.3988" xml:space="preserve" y="219.4337" font-family="sans-serif" clip-path="url(#clipPath2)" stroke="none">Stylesheetname</text>
      <path fill="none" d="M1036.4023 274.5746 L1036.4023 161.5752" clip-path="url(#clipPath2)"/>
      <path d="M1036.4023 153.5752 L1031.4023 165.5752 L1036.4023 162.5752 L1041.4023 165.5752 Z" clip-path="url(#clipPath2)" stroke="none"/>
      <text x="953.9854" xml:space="preserve" y="185.5951" font-family="sans-serif" clip-path="url(#clipPath2)" stroke="none">Koordinaten</text>
      <path fill="none" d="M1066.3031 274.5839 L1066.3031 228.0227 L1168.3835 228.0227" clip-path="url(#clipPath2)"/>
      <path d="M1176.3835 228.0227 L1164.3835 223.0227 L1167.3835 228.0227 L1164.3835 233.0227 Z" clip-path="url(#clipPath2)" stroke="none"/>
      <text x="1058.1206" xml:space="preserve" y="225.1946" font-family="sans-serif" clip-path="url(#clipPath2)" stroke="none">Stylesheetname,</text>
      <text x="1072.2329" xml:space="preserve" y="239.1633" font-family="sans-serif" clip-path="url(#clipPath2)" stroke="none">Koordinaten</text>
      <path fill="none" d="M1306.1775 74.8735 L1379.9015 74.8735" clip-path="url(#clipPath2)"/>
      <path d="M1387.9015 74.8735 L1375.9015 69.8735 L1378.9015 74.8735 L1375.9015 79.8735 Z" clip-path="url(#clipPath2)" stroke="none"/>
      <text x="1309.3796" xml:space="preserve" y="68.4289" font-family="sans-serif" clip-path="url(#clipPath2)" stroke="none">Datenfluss</text>
    </g>
  </g>
</svg>
