<?xml version="1.0" encoding="UTF-8"?><svg xmlns="http://www.w3.org/2000/svg" xmlns:xlink="http://www.w3.org/1999/xlink" fill-opacity="1" color-rendering="auto" color-interpolation="auto" stroke="black" text-rendering="auto" stroke-linecap="square" width="819" stroke-miterlimit="10" stroke-opacity="1" shape-rendering="auto" fill="black" stroke-dasharray="none" font-weight="normal" stroke-width="1" height="488" font-family="'Dialog'" font-style="normal" stroke-linejoin="miter" font-size="12" stroke-dashoffset="0" image-rendering="auto">
  <!--Generated by ySVG-->
  <defs id="genericDefs"/>
  <g>
    <defs id="defs1">
      <linearGradient x1="785.1515" gradientUnits="userSpaceOnUse" x2="1573.375" y1="564.875" y2="954.8025" id="linearGradient1" spreadMethod="pad">
        <stop stop-opacity="1" stop-color="rgb(232,238,247)" offset="0%"/>
        <stop stop-opacity="1" stop-color="rgb(183,201,227)" offset="100%"/>
      </linearGradient>
      <linearGradient x1="1305.3933" gradientUnits="userSpaceOnUse" x2="1573.375" y1="497.5758" y2="564.875" id="linearGradient2" spreadMethod="pad">
        <stop stop-opacity="1" stop-color="rgb(232,238,247)" offset="0%"/>
        <stop stop-opacity="1" stop-color="rgb(183,201,227)" offset="100%"/>
      </linearGradient>
      <linearGradient x1="917.0347" gradientUnits="userSpaceOnUse" x2="1033.9653" y1="578.06" y2="612.94" id="linearGradient3" spreadMethod="pad">
        <stop stop-opacity="1" stop-color="rgb(232,238,247)" offset="0%"/>
        <stop stop-opacity="1" stop-color="rgb(183,201,227)" offset="100%"/>
      </linearGradient>
      <linearGradient x1="797.1397" gradientUnits="userSpaceOnUse" x2="1033.9653" y1="612.94" y2="729.1256" id="linearGradient4" spreadMethod="pad">
        <stop stop-opacity="1" stop-color="rgb(232,238,247)" offset="0%"/>
        <stop stop-opacity="1" stop-color="rgb(183,201,227)" offset="100%"/>
      </linearGradient>
      <linearGradient x1="1183.8604" gradientUnits="userSpaceOnUse" x2="1300.7909" y1="578.06" y2="612.94" id="linearGradient5" spreadMethod="pad">
        <stop stop-opacity="1" stop-color="rgb(232,238,247)" offset="0%"/>
        <stop stop-opacity="1" stop-color="rgb(183,201,227)" offset="100%"/>
      </linearGradient>
      <linearGradient x1="1063.9653" gradientUnits="userSpaceOnUse" x2="1300.7909" y1="612.94" y2="729.1256" id="linearGradient6" spreadMethod="pad">
        <stop stop-opacity="1" stop-color="rgb(232,238,247)" offset="0%"/>
        <stop stop-opacity="1" stop-color="rgb(183,201,227)" offset="100%"/>
      </linearGradient>
      <linearGradient x1="1445.3141" gradientUnits="userSpaceOnUse" x2="1562.2446" y1="578.06" y2="612.94" id="linearGradient7" spreadMethod="pad">
        <stop stop-opacity="1" stop-color="rgb(232,238,247)" offset="0%"/>
        <stop stop-opacity="1" stop-color="rgb(183,201,227)" offset="100%"/>
      </linearGradient>
      <linearGradient x1="1325.4191" gradientUnits="userSpaceOnUse" x2="1562.2446" y1="612.94" y2="729.1256" id="linearGradient8" spreadMethod="pad">
        <stop stop-opacity="1" stop-color="rgb(232,238,247)" offset="0%"/>
        <stop stop-opacity="1" stop-color="rgb(183,201,227)" offset="100%"/>
      </linearGradient>
      <clipPath clipPathUnits="userSpaceOnUse" id="clipPath1">
        <path d="M0 0 L819 0 L819 488 L0 488 L0 0 Z"/>
      </clipPath>
      <clipPath clipPathUnits="userSpaceOnUse" id="clipPath2">
        <path d="M770 482 L1589 482 L1589 970 L770 970 L770 482 Z"/>
      </clipPath>
    </defs>
    <g fill="white" transform="translate(-770,-482)" stroke="white">
      <rect x="770" width="819" height="488" y="482" clip-path="url(#clipPath2)" stroke="none"/>
    </g>
    <g fill="url(#linearGradient1)" stroke-miterlimit="1.45" transform="matrix(1,0,0,1,-770,-482)" stroke-linecap="butt" stroke="url(#linearGradient1)">
      <path d="M785.1515 564.875 L1573.375 564.875 L1573.375 954.8025 L785.1515 954.8025 Z" clip-path="url(#clipPath2)" stroke="none"/>
      <path fill="none" d="M785.1515 564.875 L1573.375 564.875 L1573.375 954.8025 L785.1515 954.8025 Z" clip-path="url(#clipPath2)" stroke="black"/>
    </g>
    <g fill="url(#linearGradient2)" stroke-miterlimit="1.45" transform="matrix(1,0,0,1,-770,-482)" stroke-linecap="butt" stroke="url(#linearGradient2)">
      <path d="M1305.3933 497.5758 L1573.375 497.5758 L1573.375 564.875 L1305.3933 564.875 Z" clip-path="url(#clipPath2)" stroke="none"/>
      <path fill="none" d="M1305.3933 497.5758 L1573.375 497.5758 L1573.375 564.875 L1305.3933 564.875 Z" clip-path="url(#clipPath2)" stroke="black"/>
    </g>
    <g font-size="22" stroke-miterlimit="1.45" font-family="sans-serif" transform="matrix(1,0,0,1,-770,-482)" stroke-linecap="butt">
      <text x="1354.1664" xml:space="preserve" y="538.8426" clip-path="url(#clipPath2)" stroke="none">alacarte-import</text>
    </g>
    <g fill="url(#linearGradient3)" stroke-miterlimit="1.45" transform="matrix(1,0,0,1,-770,-482)" stroke-linecap="butt" stroke="url(#linearGradient3)">
      <path d="M917.0347 578.06 L1033.9653 578.06 L1033.9653 612.94 L917.0347 612.94 Z" clip-path="url(#clipPath2)" stroke="none"/>
      <path fill="none" d="M917.0347 578.06 L1033.9653 578.06 L1033.9653 612.94 L917.0347 612.94 Z" clip-path="url(#clipPath2)" stroke="black"/>
      <text x="925.7861" y="599.6562" clip-path="url(#clipPath2)" fill="black" font-family="sans-serif" stroke="none" xml:space="preserve">OSM-XML-Parser</text>
    </g>
    <g fill="url(#linearGradient4)" stroke-miterlimit="1.45" transform="matrix(1,0,0,1,-770,-482)" stroke-linecap="butt" stroke="url(#linearGradient4)">
      <path d="M797.1397 612.94 L1033.9653 612.94 L1033.9653 729.1256 L797.1397 729.1256 Z" clip-path="url(#clipPath2)" stroke="none"/>
      <path fill="none" d="M797.1397 612.94 L1033.9653 612.94 L1033.9653 729.1256 L797.1397 729.1256 Z" clip-path="url(#clipPath2)" stroke="black"/>
    </g>
    <g fill="url(#linearGradient5)" stroke-miterlimit="1.45" transform="matrix(1,0,0,1,-770,-482)" stroke-linecap="butt" stroke="url(#linearGradient5)">
      <path d="M1183.8604 578.06 L1300.7909 578.06 L1300.7909 612.94 L1183.8604 612.94 Z" clip-path="url(#clipPath2)" stroke="none"/>
      <path fill="none" d="M1183.8604 578.06 L1300.7909 578.06 L1300.7909 612.94 L1183.8604 612.94 Z" clip-path="url(#clipPath2)" stroke="black"/>
      <text x="1189.5824" y="599.6562" clip-path="url(#clipPath2)" fill="black" font-family="sans-serif" stroke="none" xml:space="preserve">Datenübersetzter</text>
    </g>
    <g fill="url(#linearGradient6)" stroke-miterlimit="1.45" transform="matrix(1,0,0,1,-770,-482)" stroke-linecap="butt" stroke="url(#linearGradient6)">
      <path d="M1063.9653 612.94 L1300.7909 612.94 L1300.7909 729.1256 L1063.9653 729.1256 Z" clip-path="url(#clipPath2)" stroke="none"/>
      <path fill="none" d="M1063.9653 612.94 L1300.7909 612.94 L1300.7909 729.1256 L1063.9653 729.1256 Z" clip-path="url(#clipPath2)" stroke="black"/>
    </g>
    <g fill="url(#linearGradient7)" stroke-miterlimit="1.45" transform="matrix(1,0,0,1,-770,-482)" stroke-linecap="butt" stroke="url(#linearGradient7)">
      <path d="M1445.3141 578.06 L1562.2446 578.06 L1562.2446 612.94 L1445.3141 612.94 Z" clip-path="url(#clipPath2)" stroke="none"/>
      <path fill="none" d="M1445.3141 578.06 L1562.2446 578.06 L1562.2446 612.94 L1445.3141 612.94 Z" clip-path="url(#clipPath2)" stroke="black"/>
      <text x="1455.8761" y="592.6719" clip-path="url(#clipPath2)" fill="black" font-family="sans-serif" stroke="none" xml:space="preserve">Zwischendaten-</text>
      <text x="1474.1515" y="606.6406" clip-path="url(#clipPath2)" fill="black" font-family="sans-serif" stroke="none" xml:space="preserve">generator</text>
    </g>
    <g fill="url(#linearGradient8)" stroke-miterlimit="1.45" transform="matrix(1,0,0,1,-770,-482)" stroke-linecap="butt" stroke="url(#linearGradient8)">
      <path d="M1325.4191 612.94 L1562.2446 612.94 L1562.2446 729.1256 L1325.4191 729.1256 Z" clip-path="url(#clipPath2)" stroke="none"/>
      <path fill="none" d="M1325.4191 612.94 L1562.2446 612.94 L1562.2446 729.1256 L1325.4191 729.1256 Z" clip-path="url(#clipPath2)" stroke="black"/>
    </g>
  </g>
</svg>
